<?xml version="1.0" encoding="UTF-8"?>
<svg width="59px" height="59px" viewBox="0 0 59 59" version="1.1" xmlns="http://www.w3.org/2000/svg" xmlns:xlink="http://www.w3.org/1999/xlink">
    <!-- Generator: sketchtool 63.1 (101010) - https://sketch.com -->
    <title>55E26C69-48E4-45DE-8D5A-8ABA31A1BF72</title>
    <desc>Created with sketchtool.</desc>
    <defs>
        <linearGradient x1="0%" y1="53.1232691%" x2="100%" y2="46.8767309%" id="linearGradient-1">
            <stop stop-color="#19B89C" offset="0%"></stop>
            <stop stop-color="#5BE4CC" offset="100%"></stop>
        </linearGradient>
    </defs>
    <g id="Sign-up" stroke="none" stroke-width="1" fill="none" fill-rule="evenodd">
        <g id="Dashboard-" transform="translate(-246.000000, -319.000000)">
            <g id="Feature" transform="translate(16.000000, 286.000000)">
                <g id="Schedule" transform="translate(179.000000, 0.000000)">
                    <g id="Appointments" transform="translate(51.212903, 33.435897)">
                        <g id="img">
                            <path d="M56.0904715,19.6017413 L2.4385608,19.6017413 C1.09268605,19.6017413 0,20.6941247 0,22.0396266 L0,51.1987179 C0,55.2312062 3.2825235,58.5128205 7.31612903,58.5128205 L51.2129032,58.5128205 C55.2465088,58.5128205 58.5290323,55.2312062 58.5290323,51.1987179 L58.5290323,22.0396266 C58.5290323,20.6941247 57.4363462,19.6017413 56.0904715,19.6017413 Z" id="Path" fill="#0EAD69"></path>
                            <g id="checked" transform="translate(25.083871, 41.794872)" fill-rule="nonzero">
                                <ellipse id="Oval" fill="#FFFFFF" cx="4.69764" cy="4.64537805" rx="4.69764" ry="4.64537805"></ellipse>
                                <path d="M3.96293801,7.22125119 C3.82935583,7.19923518 3.69577365,7.11117114 3.60671887,7.00109109 L2.49353403,5.57005046 C2.29316076,5.32787435 2.33768815,4.95360219 2.60485251,4.7554581 C2.84975318,4.55731401 3.22823602,4.60134603 3.42860929,4.86553815 L4.0519928,5.6581145 L6.18930768,2.57587314 C6.36741726,2.31168102 6.7236364,2.24563299 6.99080076,2.42176107 C7.25796512,2.59788915 7.32475621,2.97216131 7.14664664,3.21433742 L4.56405782,6.97907508 C4.45273934,7.13318715 4.27462977,7.22125119 4.09652019,7.22125119 C4.0519928,7.2432672 4.00746541,7.2432672 3.96293801,7.22125119 Z" id="Path" fill="#FA6400"></path>
                            </g>
                            <path d="M51.2129032,7.31410256 L7.31612903,7.31410256 C3.27537884,7.31410256 0,10.5669336 0,14.5798672 L0,21.9423077 L58.5290323,21.9423077 L58.5290323,14.5798672 C58.5290323,10.5669336 55.2536534,7.31410256 51.2129032,7.31410256 Z" id="Path" fill="url(#linearGradient-1)" fill-rule="nonzero"></path>
                            <path d="M14.2840198,0 L11.845459,0 C10.4991377,0 9.40645161,1.09238339 9.40645161,2.43788535 L9.40645161,12.1903198 C9.40645161,13.5358217 10.4991377,14.6282051 11.845459,14.6282051 L14.2840198,14.6282051 C15.6303412,14.6282051 16.7225806,13.5358217 16.7225806,12.1903198 L16.7225806,2.43788535 C16.7225806,1.09238339 15.6303412,0 14.2840198,0 Z" id="Path" fill="#E0E0E0" fill-rule="nonzero"></path>
                            <path d="M46.6835732,0 L44.2450124,0 C42.898691,0 41.8064516,1.09238339 41.8064516,2.43788535 L41.8064516,12.1903198 C41.8064516,13.5358217 42.898691,14.6282051 44.2450124,14.6282051 L46.6835732,14.6282051 C48.0298946,14.6282051 49.1225806,13.5358217 49.1225806,12.1903198 L49.1225806,2.43788535 C49.1225806,1.09238339 48.0298946,0 46.6835732,0 L46.6835732,0 Z" id="Path" fill="#E0E0E0" fill-rule="nonzero"></path>
                            <path d="M14.9588441,27.1666667 L9.07986563,27.1666667 C8.10627961,27.1666667 7.31612903,27.9565984 7.31612903,28.9299147 L7.31612903,34.8072648 C7.31612903,35.7805811 8.10627961,36.5705128 9.07986563,36.5705128 L14.9588441,36.5705128 C15.9324301,36.5705128 16.7225806,35.7805811 16.7225806,34.8072648 L16.7225806,28.9299147 C16.7225806,27.9565984 15.9324301,27.1666667 14.9588441,27.1666667 Z" id="Path" fill="#FFFFFF" fill-rule="nonzero"></path>
                            <path d="M14.9588441,41.7948718 L9.07986563,41.7948718 C8.10627961,41.7948718 7.31612903,42.5848035 7.31612903,43.5581199 L7.31612903,49.4354699 C7.31612903,50.4087862 8.10627961,51.1987179 9.07986563,51.1987179 L14.9588441,51.1987179 C15.9324301,51.1987179 16.7225806,50.4087862 16.7225806,49.4354699 L16.7225806,43.5581199 C16.7225806,42.5848035 15.9324301,41.7948718 14.9588441,41.7948718 L14.9588441,41.7948718 Z" id="Path" fill="#FFFFFF" fill-rule="nonzero"></path>
                            <path d="M32.7266667,27.1666667 L26.8475268,27.1666667 C25.8739854,27.1666667 25.083871,27.9565984 25.083871,28.9299147 L25.083871,34.8072648 C25.083871,35.7805811 25.8739854,36.5705128 26.8475268,36.5705128 L32.7266667,36.5705128 C33.7002082,36.5705128 34.4903226,35.7805811 34.4903226,34.8072648 L34.4903226,28.9299147 C34.4903226,27.9565984 33.7002082,27.1666667 32.7266667,27.1666667 Z" id="Path" fill="#FFFFFF" fill-rule="nonzero"></path>
                            <path d="M49.4492474,41.7948718 L43.5701075,41.7948718 C42.596566,41.7948718 41.8064516,42.5848035 41.8064516,43.5581199 L41.8064516,49.4354699 C41.8064516,50.4087862 42.596566,51.1987179 43.5701075,51.1987179 L49.4492474,51.1987179 C50.4227888,51.1987179 51.2129032,50.4087862 51.2129032,49.4354699 L51.2129032,43.5581199 C51.2129032,42.5848035 50.4227888,41.7948718 49.4492474,41.7948718 L49.4492474,41.7948718 Z" id="Path" fill="#FFFFFF" fill-rule="nonzero" opacity="0.5"></path>
                            <path d="M49.4491666,27.1666667 L43.5701882,27.1666667 C42.5966022,27.1666667 41.8064516,27.9565984 41.8064516,28.9299147 L41.8064516,34.8072648 C41.8064516,35.7805811 42.5966022,36.5705128 43.5701882,36.5705128 L49.4491666,36.5705128 C50.4227526,36.5705128 51.2129032,35.7805811 51.2129032,34.8072648 L51.2129032,28.9299147 C51.2129032,27.9565984 50.4227526,27.1666667 49.4491666,27.1666667 Z" id="Path" fill="#FFFFFF" fill-rule="nonzero"></path>
                        </g>
                    </g>
                </g>
            </g>
        </g>
    </g>
</svg>