<svg width="18" height="20" viewBox="0 0 18 20" fill="none" xmlns="http://www.w3.org/2000/svg">
<path fill-rule="evenodd" clip-rule="evenodd" d="M9 0C10.1 0 11 0.9 11 2C11 3.1 10.1 4 9 4C7.9 4 7 3.1 7 2C7 0.9 7.9 0 9 0ZM18 7H12V20H10V14H8V20H6V7H0V5H18V7Z" fill="black"/>
</svg>
