<?xml version="1.0" encoding="UTF-8"?>
<svg width="48px" height="48px" viewBox="0 0 48 48" version="1.1" xmlns="http://www.w3.org/2000/svg" xmlns:xlink="http://www.w3.org/1999/xlink">
    <!-- Generator: sketchtool 63.1 (101010) - https://sketch.com -->
    <title>0581DA38-F9D4-42B1-9435-D8C6CD012B05</title>
    <desc>Created with sketchtool.</desc>
    <g id="Patients-files" stroke="none" stroke-width="1" fill="none" fill-rule="evenodd">
        <g id="Consultation-details" transform="translate(-1286.000000, -1101.000000)">
            <g id="Icon_Title-Copy" transform="translate(1286.000000, 1101.000000)">
                <g id="ic">
                    <g id="Fill" opacity="0.159999996" fill="#19B89C">
                        <path d="M14.4,0 L33.6,0 C41.5529004,0 48,6.4470996 48,14.4 L48,33.6 C48,41.5529004 41.5529004,48 33.6,48 L14.4,48 C6.4470996,48 0,41.5529004 0,33.6 L0,14.4 C0,6.4470996 6.4470996,0 14.4,0 Z" id="Rounded"></path>
                    </g>
                    <g id="Icon_24" transform="translate(6.000000, 6.000000)">
                        <g id="ic_medication">
                            <rect id="bound" fill="#000000" opacity="0" x="0" y="0" width="36" height="36"></rect>
                            <path d="M18.8625745,5.41622324 C22.1030963,2.19459225 27.3370127,2.19459225 30.5837357,5.42242447 C33.8053667,8.66294626 33.8053667,13.8968627 30.5806752,17.1404542 L30.5806752,17.1404542 L23.8673824,23.8527746 L23.8607542,23.8608252 L17.1373845,30.5837357 C13.8968627,33.8053667 8.66294626,33.8053667 5.41622324,30.5775345 C2.284082,27.4270272 2.19707808,22.3923313 5.15802401,19.134326 L5.41928381,18.8595048 L12.1391338,12.1392048 L12.1483824,12.1297746 Z M13.1993824,15.3207746 L7.54373575,20.9776845 C5.48542142,23.0480683 5.48542142,26.3920407 7.53753452,28.4562232 C9.53397599,30.4410263 12.71466,30.5119122 14.7929379,28.6716249 L15.0192048,28.4592838 L20.6783824,22.7997746 L13.1993824,15.3207746 Z M28.4624245,7.54373575 C26.3920407,5.48542142 23.0480683,5.48542142 20.9807542,7.54067518 L20.9807542,7.54067518 L15.321,13.2 L22.8,20.6775 L28.4562232,15.0222745 C30.4410263,13.025833 30.5119122,9.84514897 28.674441,7.769679 L28.674441,7.769679 Z M26.4797479,9.53461185 C27.2468216,9.84748486 27.6150239,10.7229546 27.3021509,11.4900282 C26.9892779,12.2571019 26.1138082,12.6253043 25.3467345,12.3124313 C24.2268608,11.8556586 22.9303322,12.1046367 22.0594458,12.9735323 C21.4729894,13.558648 20.5232426,13.5575613 19.9381268,12.9711049 C19.3530111,12.3846485 19.3540979,11.4349017 19.9405542,10.8497859 C21.6727743,9.1215257 24.2524414,8.62614094 26.4797479,9.53461185 Z" id="Fill" fill="#19B89C"></path>
                        </g>
                    </g>
                </g>
            </g>
        </g>
    </g>
</svg>