<?xml version="1.0" encoding="UTF-8"?>
<svg width="40px" height="40px" viewBox="0 0 40 40" version="1.1" xmlns="http://www.w3.org/2000/svg" xmlns:xlink="http://www.w3.org/1999/xlink">
    <!-- Generator: sketchtool 63.1 (101010) - https://sketch.com -->
    <title>9B587DF6-7B58-49EE-B459-8A8DABD4F40D</title>
    <desc>Created with sketchtool.</desc>
    <g id="Sign-up" stroke="none" stroke-width="1" fill="none" fill-rule="evenodd">
        <g id="Patient-profile" transform="translate(-287.000000, -687.000000)">
            <g id="ic_profile_vaccine" transform="translate(287.000000, 687.000000)">
                <g id="ic">
                    <g id="Fill" fill="#19B89C">
                        <path d="M12,0 L28,0 C34.627417,0 40,5.372583 40,12 L40,28 C40,34.627417 34.627417,40 28,40 L12,40 C5.372583,40 0,34.627417 0,28 L0,12 C0,5.372583 5.372583,0 12,0 Z" id="Rounded"></path>
                    </g>
                    <g id="Icon_24" transform="translate(8.000000, 8.000000)">
                        <g id="ic_vaccination">
                            <rect id="bound" fill="#000000" opacity="0" x="0" y="0" width="24" height="24"></rect>
                            <path d="M6.81284449,2.30204076 C7.17332845,2.66252472 7.20105798,3.22975578 6.89603309,3.62204698 L6.81284449,3.71625432 L6.676,3.852 L7.58091803,4.75614754 L8.56013912,3.7774506 C8.95066341,3.3869263 9.58382839,3.3869263 9.97435268,3.7774506 C10.3348366,4.13793456 10.3625662,4.70516561 10.0575413,5.09745682 L9.97435268,5.19166416 L9.838,5.327 L17.3514209,12.8406172 C17.8939957,13.3832212 18.1338652,14.113895 18.0710261,14.8227917 L18.6160992,15.3694267 C18.8597809,15.6128887 18.9966984,15.9432259 18.9966984,16.2876885 C18.9966984,16.5829422 18.8961059,16.867818 18.7141106,17.0963018 L18.687,17.127 L21.5669428,20.0069588 C21.9574671,20.3974831 21.9574671,21.0306481 21.5669428,21.4211724 C21.2064589,21.7816563 20.6392278,21.8093859 20.2469366,21.504361 L20.1527293,21.4211724 L17.272,18.54 L17.2425683,18.5678441 C17.0138836,18.7500404 16.7290078,18.8506328 16.4337541,18.8506328 C16.1385004,18.8506328 15.8536246,18.7500404 15.6251408,18.5680451 L15.5158113,18.4703527 L14.9696977,17.9251559 C14.3156888,17.9834261 13.6430424,17.7840314 13.1165558,17.3269691 L12.9863686,17.2056314 L5.473,9.692 L5.33743465,9.82858219 C4.94691036,10.2191065 4.31374538,10.2191065 3.92322109,9.82858219 C3.56273713,9.46809823 3.53500759,8.90086717 3.84003248,8.50857597 L3.92322109,8.41436863 L4.90191803,7.43514754 L3.998,6.531 L3.86202481,6.66707399 C3.47150052,7.05759829 2.83833554,7.05759829 2.44781125,6.66707399 C2.08732729,6.30659003 2.05959775,5.73935898 2.36462265,5.34706777 L2.44781125,5.25286043 L5.39863092,2.30204076 C5.78915522,1.91151647 6.42232019,1.91151647 6.81284449,2.30204076 Z M13.693,12.01 L12.156,13.547 L14.4005631,15.7913987 C14.5681554,15.958982 14.8268517,15.9799299 15.0172072,15.8542552 L15.0941391,15.7914178 L15.9371692,14.9483877 C16.1047525,14.7807954 16.1257004,14.5220991 16.0000257,14.3317436 L15.9371883,14.2548117 L13.693,12.01 Z M8.424,6.741 L8.29681938,6.86909462 C8.29398554,6.87199695 8.29113052,6.87488632 8.28825432,6.87776252 L8.27991803,6.88414754 L7.03110777,8.13482876 C7.02859939,8.13739064 7.02607447,8.13994237 7.02353301,8.14248383 L7.01391803,8.15014754 L6.887,8.278 L10.742,12.133 L12.279,10.596 L8.424,6.741 Z" id="Fill" fill="#FFFFFF"></path>
                        </g>
                    </g>
                </g>
            </g>
        </g>
    </g>
</svg>