<?xml version="1.0" encoding="UTF-8"?>
<svg width="138px" height="149px" viewBox="0 0 138 149" version="1.1" xmlns="http://www.w3.org/2000/svg" xmlns:xlink="http://www.w3.org/1999/xlink">
    <!-- Generator: sketchtool 63.1 (101010) - https://sketch.com -->
    <title>8400E551-29A6-425A-9F33-E986673B4AD9</title>
    <desc>Created with sketchtool.</desc>
    <g id="Sign-up" stroke="none" stroke-width="1" fill="none" fill-rule="evenodd">
        <g id="Appointment-date-and-time-changed" transform="translate(-122.000000, -327.000000)" fill="#F0F0F0" fill-rule="nonzero">
            <g id="noun_schedule_694983" transform="translate(122.000000, 327.000000)">
                <path d="M98.3333773,17.7742744 C98.3325223,19.1007215 97.6941441,20.3456289 96.6182392,21.1189817 L77.5695825,34.8018752 C76.3170875,35.6935823 74.6728124,35.8116425 73.306146,35.1079932 C71.9394796,34.404344 71.0783431,32.996334 71.0733075,31.4571679 L71.0733075,23.2018222 C70.5293452,23.3536002 69.9682937,23.4353421 69.4037041,23.4450736 C39.9575429,23.4500258 15.5496217,46.3049132 13.5633506,75.7324021 C11.5770795,105.159891 32.691644,131.097547 61.8691746,135.072477 C91.0467052,139.047407 118.310238,119.700424 124.242586,90.8105192 C124.545455,88.3013339 126.231333,86.1759732 128.603099,85.3132898 C130.974865,84.4506065 133.629427,84.9972168 135.469104,86.7270932 C137.30878,88.4569696 138.020912,91.0761132 137.311027,93.5014882 C129.964311,129.307233 96.1754172,153.287252 60.0146257,148.358838 C23.8538341,143.430423 -2.31000107,111.279347 0.161518181,74.8091533 C2.63303744,38.3389595 32.8945242,10.0243337 69.3885259,10.035838 C69.9531423,10.045238 70.5142356,10.126986 71.0581293,10.2790894 L71.0581293,4.10658415 C71.0631649,2.56741807 71.9243014,1.15940805 73.2909678,0.455758811 C74.6576341,-0.247890428 76.3019093,-0.129830198 77.5544043,0.761876858 L96.603061,14.4447703 C97.6803753,15.2116991 98.324141,16.450444 98.3333773,17.7742744 L98.3333773,17.7742744 Z M124.667576,70.6662593 C125.192845,73.8996605 127.969291,76.2824739 131.239742,76.3066521 C131.59045,76.3143104 131.941098,76.2888593 132.287039,76.230636 C134.97287,75.8320705 137.152258,73.8478478 137.803983,71.2077372 C138.455707,68.5676266 137.450642,65.7947137 135.259742,64.1883329 C133.068842,62.5819522 130.12619,62.4603762 127.810657,63.8805732 C125.495125,65.3007702 124.265488,67.9813562 124.697933,70.6662593 L124.667576,70.6662593 Z M109.337581,37.8425499 C112.591101,37.8325063 115.366229,35.48059 115.914784,32.2683497 C116.463339,29.0561093 114.626429,25.9139969 111.561206,24.8213736 C108.495984,23.7287503 105.090317,25.0021034 103.489592,27.8392893 C101.888867,30.6764753 102.556747,34.2556795 105.072504,36.3221967 C106.274761,37.3097668 107.782753,37.8473028 109.337581,37.8425499 Z M120.493568,42.5555148 C118.135841,43.894938 116.817313,46.5263976 117.154053,49.2203704 C117.490792,51.9143432 119.416318,54.1389677 122.030947,54.8548102 C124.645576,55.5706528 127.433112,54.6363871 129.091106,52.4885395 C130.7491,50.340692 130.95022,47.4033045 129.600495,45.0488421 C127.766584,41.8497648 123.69708,40.7356012 120.493568,42.5555148 L120.493568,42.5555148 Z M104.920722,79.4689208 C104.920722,99.0663606 89.0599843,114.953225 69.4947734,114.953225 C49.9295625,114.953225 34.0688252,99.0663606 34.0688252,79.4689208 C34.0688252,59.871481 49.9295625,43.984617 69.4947734,43.984617 C78.890319,43.984617 87.9010475,47.7231312 94.5447015,54.377729 C101.188356,61.0323268 104.920722,70.0578983 104.920722,79.4689208 Z M83.5649764,87.4506087 L73.8053857,77.6749414 L73.8053857,62.5629457 C73.8053857,60.1783387 71.8754589,58.2452327 69.4947734,58.2452327 C67.1140879,58.2452327 65.184161,60.1783387 65.184161,62.5629457 L65.184161,81.2629002 L77.463335,93.5623011 C78.5092837,94.8186068 80.1742165,95.374969 81.7637099,94.9993358 C83.3532032,94.6237025 84.5942759,93.3805855 84.9692914,91.7884738 C85.3443069,90.1963621 84.7888596,88.5286868 83.53462,87.4810151 L83.5649764,87.4506087 Z" id="Shape"></path>
            </g>
        </g>
    </g>
</svg>