<?xml version="1.0" encoding="UTF-8"?>
<svg width="121px" height="41px" viewBox="0 0 121 41" version="1.1" xmlns="http://www.w3.org/2000/svg" xmlns:xlink="http://www.w3.org/1999/xlink">
    <title>2B10AEC4-576C-4CDE-A084-382CFFE0E85C@2x</title>
    <defs>
        <polygon id="path-1" points="0 0.104067144 16.5033856 0.104067144 16.5033856 28.6770666 0 28.6770666"></polygon>
        <polygon id="path-3" points="0.0209870531 0.0844070234 55.5921932 0.0844070234 55.5921932 32.1413803 0.0209870531 32.1413803"></polygon>
    </defs>
    <g id="Payment" stroke="none" stroke-width="1" fill="none" fill-rule="evenodd">
        <g id="INVOICE---PDF" transform="translate(-238.000000, -45.000000)">
            <g id="Group-17" transform="translate(238.000000, 45.000000)">
                <g id="Group-3" transform="translate(0.000000, 3.478261)">
                    <mask id="mask-2" fill="white">
                        <use xlink:href="#path-1"></use>
                    </mask>
                    <g id="Clip-2"></g>
                    <path d="M0.695792691,1.51136489 C0.270537492,1.51136489 -3.59168242e-05,1.15951018 -3.59168242e-05,0.807655476 C-3.59168242e-05,0.455921849 0.270537492,0.104067144 0.695792691,0.104067144 L15.8079162,0.104067144 C16.2717221,0.104067144 16.5033856,0.416813429 16.5033856,0.768547056 C16.5033856,1.12040176 16.3102728,1.51136489 15.8079162,1.51136489 L8.96683869,1.51136489 L8.96683869,27.9734783 C8.96683869,28.4425371 8.61892439,28.6770666 8.27101008,28.6770666 C7.92333522,28.6770666 7.57542092,28.4425371 7.57542092,27.9734783 L7.57542092,1.51136489 L0.695792691,1.51136489 Z" id="Fill-1" fill="#74898C" mask="url(#mask-2)"></path>
                </g>
                <path d="M24.1028388,22.6086623 C26.0232817,22.6086623 26.4543767,22.3715046 26.4543767,21.1461694 C26.4543767,18.3003996 24.2596889,15.2963205 20.8891108,15.2963205 C17.7147167,15.2963205 15.2847537,17.9446018 15.2847537,20.9090117 L15.2847537,22.6086623 L24.1028388,22.6086623 Z M27.826087,21.0276518 C27.826087,23.9129683 26.2584355,23.9920617 24.5731464,23.9920617 L15.2847537,23.9920617 L15.2847537,25.8496541 C15.2847537,29.4465662 18.0673867,31.6599564 21.908151,31.6599564 C25.2003041,31.6599564 25.7881279,30.0392768 26.5328018,30.0392768 C26.8854718,30.0392768 27.2382632,30.4346212 27.2382632,30.7508723 C27.2382632,31.501892 25.2003041,33.0434783 21.829726,33.0434783 C17.205318,33.0434783 13.9130435,30.1580393 13.9130435,25.8496541 L13.9130435,20.9090117 C13.9130435,17.1146111 17.087559,13.9130435 20.8891108,13.9130435 C24.5731464,13.9130435 27.826087,16.9170001 27.826087,21.0276518 L27.826087,21.0276518 Z" id="Fill-4" fill="#74898C"></path>
                <path d="M32.173913,2.43218441 L32.173913,32.3097678 C32.173913,32.6766862 31.7763755,33.0434783 31.2794152,33.0434783 C30.7827626,33.0434783 30.4347826,32.6766862 30.4347826,32.3097678 L30.4347826,2.43218441 C30.4347826,2.02448332 30.7827626,1.73913043 31.2794152,1.73913043 C31.7763755,1.73913043 32.173913,2.02448332 32.173913,2.43218441" id="Fill-6" fill="#74898C"></path>
                <path d="M44.1029602,22.6086623 C46.0232817,22.6086623 46.4544981,22.3715046 46.4544981,21.1461694 C46.4544981,18.3003996 44.2598103,15.2963205 40.8891108,15.2963205 C37.7147167,15.2963205 35.2847537,17.9446018 35.2847537,20.9090117 L35.2847537,22.6086623 L44.1029602,22.6086623 Z M47.826087,21.0276518 C47.826087,23.9129683 46.2584355,23.9920617 44.5731464,23.9920617 L35.2847537,23.9920617 L35.2847537,25.8496541 C35.2847537,29.4465662 38.0675081,31.6599564 41.9082724,31.6599564 C45.2003041,31.6599564 45.7881279,30.0392768 46.5328018,30.0392768 C46.8855932,30.0392768 47.2382632,30.4346212 47.2382632,30.7508723 C47.2382632,31.501892 45.2003041,33.0434783 41.8298474,33.0434783 C37.205318,33.0434783 33.9130435,30.1580393 33.9130435,25.8496541 L33.9130435,20.9090117 C33.9130435,17.1146111 37.087559,13.9130435 40.8891108,13.9130435 C44.5731464,13.9130435 47.826087,16.9170001 47.826087,21.0276518 L47.826087,21.0276518 Z" id="Fill-8" fill="#74898C"></path>
                <path d="M83.4518755,34.7826087 C82.0025754,34.7826087 80.8695652,36.1183193 80.8695652,37.8270697 C80.8695652,39.5350339 82.0025754,40.8695652 83.4518755,40.8695652 C84.9072988,40.8695652 86.0869565,39.5350339 86.0869565,37.8270697 C86.0869565,36.1183193 84.9072988,34.7826087 83.4518755,34.7826087" id="Fill-10" fill="#19B89C"></path>
                <path d="M70.4347826,3.65625967 L70.4347826,1.73913043 L49.8039004,1.73913043 C47.3087292,1.73913043 46.0869565,3.60659439 46.0869565,5.07128657 L46.0869565,7.08811791 L54.9511207,7.08811791 L54.9511207,28.0853832 C54.9511207,30.8106569 56.52915,32.173913 58.6680646,32.173913 L61.115985,32.173913 L61.115985,7.08811791 L66.7679647,7.08811791 C68.8035024,7.08811791 70.4347826,5.1192179 70.4347826,3.65625967" id="Fill-12" fill="#19B89C"></path>
                <g id="Group-16" transform="translate(64.347826, 0.000000)">
                    <mask id="mask-4" fill="white">
                        <use xlink:href="#path-3"></use>
                    </mask>
                    <g id="Clip-15"></g>
                    <path d="M48.9198315,24.7391528 C48.0779996,26.4197448 46.6274566,27.4749254 44.8433716,27.4749254 C43.9866991,27.4749254 43.2076924,27.3336077 42.5171107,27.0389689 C40.4982972,26.1748518 39.2683842,23.9844271 39.2683842,20.087795 C39.2683842,16.5693301 41.4285542,13.7030057 44.2900653,13.7030057 C47.7578141,13.7030057 49.7149156,15.5638953 49.7149156,21.0912498 C49.7149156,22.4752231 49.4293581,23.7217147 48.9198315,24.7391528 L48.9198315,24.7391528 Z M9.58400928,18.3734204 C9.73513585,15.751989 11.6515494,13.4829856 14.372817,13.4829856 C16.9956421,13.4829856 18.7079977,14.6439689 18.7079977,16.9097548 C18.7079977,18.5236478 17.49713,19.1280224 12.1043107,19.1280224 L9.58400928,19.1280224 L9.58400928,18.3734204 Z M45.3459726,8.67830669 C42.2822586,8.67830669 40.3738837,10.4862331 39.2187919,12.1450458 L39.2187919,4.00504582 C39.2187919,1.33993211 37.7112363,0.0844070234 35.5004846,0.0844070234 L33.5422701,0.0844070234 L33.5422701,20.8901629 C33.5422701,23.1213 34.0715842,25.1293234 34.9810643,26.8258786 C35.0278122,26.9134906 35.0706025,27.0041963 35.1193291,27.0908184 C34.5172962,27.080795 33.9998547,27.0518385 33.5432595,26.9951629 C32.4856209,26.8627548 31.7871243,26.5551227 31.3592209,25.8334371 L31.354274,25.8334371 C31.3135861,23.2080458 29.8041755,21.9615542 27.5942895,21.9615542 L25.6082489,21.9615542 L25.6082489,25.8334371 L25.5982315,25.8334371 C25.2978334,26.9584104 23.6611648,26.9353936 21.7775243,27.0967582 L13.4266064,27.0967582 C13.0774817,27.0967582 12.7598933,27.0638418 12.4594953,27.014096 C10.9281948,26.2226177 9.85757063,24.8945776 9.58400928,23.166096 L13.315302,23.166096 C20.8750933,23.166096 24.0489986,21.8022933 24.0489986,17.6186946 C24.0489986,12.1709087 19.6143861,8.74104582 14.877273,8.74104582 C8.97789527,8.74104582 4.61501217,12.6865575 3.85678222,19.1051294 L2.80013295,19.1051294 C0.909690435,19.1051294 0.0209870531,20.176397 0.0209870531,21.744504 L0.0209870531,23.1382532 L3.9015513,23.1382532 C4.1462972,24.6663903 4.66460444,26.0472699 5.39513198,27.2500793 C6.616017,29.8505977 9.0675571,32.1413803 14.0316073,32.1413803 L22.2311513,32.1413803 C25.0042373,32.0397849 27.019217,31.1806177 28.478788,29.7709054 C30.2438276,31.3339388 32.7144131,32.1413803 35.8875764,32.1413803 L37.0913948,32.083591 L37.0913948,32.082601 L44.9238817,32.082601 C47.037304,32.082601 48.6910392,31.6644639 49.9924344,30.9874505 C51.1247706,30.3980492 51.9883687,29.6095408 52.6471668,28.723397 C54.53056,26.5012933 55.5922798,23.4778117 55.5922798,20.1374171 C55.5922798,13.4014371 51.1725078,8.67830669 45.3459726,8.67830669 L45.3459726,8.67830669 Z" id="Fill-14" fill="#19B89C" mask="url(#mask-4)"></path>
                </g>
            </g>
        </g>
    </g>
</svg>