<svg width="21" height="20" viewBox="0 0 21 20" fill="none" xmlns="http://www.w3.org/2000/svg">
<path d="M19.3249 12.86L20.7549 11.43L19.3249 10L15.7549 13.57L7.18488 5L10.7549 1.43L9.32488 0L7.89488 1.43L6.46488 0L4.32488 2.14L2.89488 0.71L1.46488 2.14L2.89488 3.57L0.754883 5.71L2.18488 7.14L0.754883 8.57L2.18488 10L5.75488 6.43L14.3249 15L10.7549 18.57L12.1849 20L13.6149 18.57L15.0449 20L17.1849 17.86L18.6149 19.29L20.0449 17.86L18.6149 16.43L20.7549 14.29L19.3249 12.86Z" fill="black"/>
</svg>
