<?xml version="1.0" encoding="utf-8"?>
<!-- Generator: Adobe Illustrator 23.0.2, SVG Export Plug-In . SVG Version: 6.00 Build 0)  -->
<svg version="1.1" id="Layer_1" xmlns="http://www.w3.org/2000/svg" xmlns:xlink="http://www.w3.org/1999/xlink" x="0px" y="0px"
	 viewBox="0 0 24 24" style="enable-background:new 0 0 24 24;" xml:space="preserve">
<style type="text/css">
	.st0{fill-rule:evenodd;clip-rule:evenodd;fill:#1E1F20;fill-opacity:0;}
	.st1{fill-rule:evenodd;clip-rule:evenodd;fill:#0188D1;}
</style>
<title>F8FDBB90-C354-4E2C-818D-98243275F2B6</title>
<g id="Hospital-Profile">
	<g id="Hospital-Profile-confirmation-" transform="translate(-694.000000, -555.000000)">
		<g id="Group-9" transform="translate(660.000000, 191.000000)">
			<g id="Group-7" transform="translate(18.000000, 216.000000)">
				<g id="down" transform="translate(16.000000, 148.000000)">
					<rect id="bound" class="st0" width="24" height="24"/>
					<path id="Fill" class="st1" d="M16.1,19c0.5,0.5,0.5,1.2,0,1.7s-1.2,0.5-1.7,0l-8.1-7.8c-0.5-0.5-0.5-1.2,0-1.7l8.1-7.8
						c0.5-0.5,1.2-0.5,1.7,0s0.5,1.2,0,1.7l-7.2,7L16.1,19z"/>
				</g>
			</g>
		</g>
	</g>
</g>
</svg>
