<?xml version="1.0" encoding="UTF-8"?>
<svg width="37px" height="37px" viewBox="0 0 37 37" version="1.1" xmlns="http://www.w3.org/2000/svg" xmlns:xlink="http://www.w3.org/1999/xlink">
    <title>E696374E-EFC2-4C28-97AE-1104A6DF068E</title>
    <defs>
        <polygon id="path-1" points="0.924 0.645221053 36.924 0.645221053 36.924 36.6452211 0.924 36.6452211"></polygon>
    </defs>
    <g id="V3---Blue-colors" stroke="none" stroke-width="1" fill="none" fill-rule="evenodd">
        <g id="Desktop-View-social-media-icons" transform="translate(-379.000000, -7404.000000)">
            <g id="Group-5" transform="translate(-45.000000, 6702.000000)">
                <g id="Footer" transform="translate(31.000000, 572.000000)">
                    <g id="Group-11" transform="translate(340.000000, 64.000000)">
                        <g id="facebook" transform="translate(53.000000, 66.000000)">
                            <g id="Group-10">
                                <mask id="mask-2" fill="white">
                                    <use xlink:href="#path-1"></use>
                                </mask>
                                <g id="Clip-9"></g>
                            </g>
                            <path d="M20.7950657,11.1125198 C20.7632312,12.2599468 20.7512933,14.9167135 20.7512933,14.9167135 L24.8698766,14.9167135 L25.8607242,14.9167135 C25.6299244,16.7468392 25.4050935,18.5111626 25.1822523,20.2816549 L20.787107,20.2816549 L20.787107,32.4756382 C19.4381218,32.8211001 18.0374055,33 16.5949065,33 C16.1929964,33 15.7950657,32.9835494 15.4011142,32.9527046 L15.4011142,20.2652043 L11,20.2652043 L11,14.9167135 L15.4329487,14.9167135 L15.4329487,14.5157309 C15.4329487,13.4382188 15.4090728,12.3668755 15.4329487,11.2893634 C15.4528452,10.6046085 15.48269,9.91162832 15.5961003,9.2330424 C15.8706725,7.60237989 16.6028651,6.22464485 17.9200159,5.23966711 C19.0740151,4.38423759 20.3931556,4.03877567 21.7918822,4.00587454 C22.7091126,3.983255 23.6183844,4.03055039 24.5336251,4.06962048 C25.0330283,4.09840898 25.5324314,4.16832389 26,4.21561927 L26,9.00273446 L25.637883,9.00273446 C24.7425388,9.00273446 23.8551532,8.98011493 22.9617986,9.01095974 C21.7421409,9.0561988 20.838838,9.53326526 20.7950657,11.1125198" id="Fill-11" fill="#FFFFFF"></path>
                        </g>
                    </g>
                </g>
            </g>
        </g>
    </g>
</svg>