<?xml version="1.0" encoding="UTF-8"?>
<svg width="11px" height="20px" viewBox="0 0 11 20" version="1.1" xmlns="http://www.w3.org/2000/svg" xmlns:xlink="http://www.w3.org/1999/xlink">
    <title>A506A385-59E9-42DA-8D91-402960C65840</title>
    <g id="Doctor-profile-(Doctor-view)" stroke="none" stroke-width="1" fill="none" fill-rule="evenodd">
        <g id="About-dr" transform="translate(-201.000000, -1957.000000)" fill="#0079AB" fill-rule="nonzero">
            <g id="Group-14" transform="translate(189.000000, 1949.000000)">
                <path d="M19.0865385,27.8205128 L15.2884615,27.8205128 L15.2884615,18.8293006 L12.1153846,18.8293006 L12.1153846,15.30697 L15.2884615,15.30697 L15.2884615,12.7115686 C15.2884615,11.2284746 15.7211495,10.0852735 16.5865385,9.2819309 C17.4519274,8.47858834 18.605762,8.07692308 20.0480769,8.07692308 C21.2019288,8.07692308 22.1474322,8.12326907 22.8846154,8.21596244 L22.8846154,11.3211749 L20.9134615,11.3675214 C20.2083298,11.3675214 19.7275654,11.5065593 19.4711538,11.7846395 C19.2147423,12.0627196 19.0865385,12.4798335 19.0865385,13.0359937 L19.0865385,15.30697 L22.7403846,15.30697 L22.2596154,18.8293006 L19.0865385,18.8293006 L19.0865385,27.8205128 Z" id=""></path>
            </g>
        </g>
    </g>
</svg>