<?xml version="1.0" encoding="UTF-8"?>
<svg width="25px" height="25px" viewBox="0 0 25 25" version="1.1" xmlns="http://www.w3.org/2000/svg" xmlns:xlink="http://www.w3.org/1999/xlink">
    <title>649BE4FC-BAD4-41D2-B85D-0057AB253A9C</title>
    <g id="Mobile-view" stroke="none" stroke-width="1" fill="none" fill-rule="evenodd">
        <g id="Webteb-recommendation-widget" transform="translate(-16.000000, -579.000000)">
            <g id="Group-8" transform="translate(16.000000, 579.000000)">
                <g id="Group-7" fill="#0079AB">
                    <circle id="Oval" cx="12.5" cy="12.5" r="12.5"></circle>
                </g>
                <g id="right-arrow" transform="translate(12.500000, 12.916667) scale(1, -1) rotate(90.000000) translate(-12.500000, -12.916667) translate(5.000000, 6.666667)" fill="#FFFFFF" fill-rule="nonzero">
                    <path d="M14.3568958,5.70513447 L9.24081388,0.640587132 C9.09477174,0.496019337 8.90012567,0.416666667 8.69257998,0.416666667 C8.48480393,0.416666667 8.29027304,0.496133349 8.14423089,0.640587132 L7.67972935,1.10051338 C7.53380238,1.24485315 7.4534101,1.43764822 7.4534101,1.64321268 C7.4534101,1.84866312 7.53380238,2.0479569 7.67972935,2.19229667 L10.6643792,5.15331418 L1.18200581,5.15331418 C0.7544755,5.15331418 0.416666667,5.48463438 0.416666667,5.90796263 L0.416666667,6.55817567 C0.416666667,6.98150392 0.7544755,7.34622977 1.18200581,7.34622977 L10.6982407,7.34622977 L7.67984453,10.3237791 C7.53391756,10.4683469 7.45352528,10.6558974 7.45352528,10.8614618 C7.45352528,11.0667983 7.53391756,11.2570851 7.67984453,11.4015388 L8.14434607,11.8599829 C8.29038821,12.0045507 8.48491911,12.0833333 8.69269515,12.0833333 C8.90024084,12.0833333 9.09488692,12.0035246 9.24092906,11.8589568 L14.357011,6.79452349 C14.5033987,6.64949965 14.5839061,6.4559065 14.5833333,6.25011401 C14.583791,6.04363745 14.5033987,5.84993029 14.3568958,5.70513447 Z" id="Path"></path>
                </g>
            </g>
        </g>
    </g>
</svg>