<?xml version="1.0" encoding="UTF-8"?>
<svg width="37px" height="37px" viewBox="0 0 37 37" version="1.1" xmlns="http://www.w3.org/2000/svg" xmlns:xlink="http://www.w3.org/1999/xlink">
    <title>28FEADFD-2778-45C5-BABA-BAA924061614</title>
    <g id="Doctor-profile" stroke="none" stroke-width="1" fill="none" fill-rule="evenodd">
        <g id="about-clinic-working-times" transform="translate(-212.000000, -413.000000)">
            <g id="Group-3" transform="translate(111.000000, 413.000000)">
                <g id="Group-4" transform="translate(101.000000, 0.000000)">
                    <g id="Group-13" transform="translate(0.076923, 0.076923)">
                        <rect id="Rectangle" fill="#0079AB" opacity="0.10338" x="0.923076923" y="0.923076923" width="35" height="35" rx="17.5"></rect>
                        <circle id="Oval" fill="#0079AB" cx="23.3589744" cy="13.4871795" r="1"></circle>
                        <circle id="Oval" stroke="#0079AB" stroke-width="1.8" cx="18.4230769" cy="18.4230769" r="4.03589744"></circle>
                        <rect id="Rectangle" stroke="#0079AB" stroke-width="1.8" x="9.9" y="9.9" width="17.0461538" height="17.0461538" rx="6"></rect>
                    </g>
                </g>
            </g>
        </g>
    </g>
</svg>