<svg width="455" height="390" viewBox="0 0 455 390" fill="none" xmlns="http://www.w3.org/2000/svg">
<path d="M454.988 376.295C454.988 382.88 358.306 390 242.513 390C126.72 390 32.187 384.071 32.187 377.485C32.187 370.9 454.988 369.709 454.988 376.295Z" fill="#D3DDE1"/>
<path d="M365.846 141.806C358.463 145.153 351.396 149.159 344.732 153.774C342.656 155.171 340.154 174.43 340.154 174.43C340.154 174.43 338.139 157.614 336.961 158.549C327.753 165.772 319.304 173.914 311.743 182.85C310.784 183.968 321.238 197.005 320.242 198.184C319.247 199.362 306.778 188.913 305.746 190.274C293.228 206.883 260.507 252.507 255.771 277.525L289.112 291.279C328.656 295.216 341.551 281.753 346.456 271.681C347.33 269.895 313.2 265.241 313.2 265.241C313.2 265.241 350.681 262.811 351.47 261.134C357.543 248.335 362.913 235.213 367.558 221.828C368.189 219.933 328.705 221.585 329.215 219.762C329.458 218.96 369.779 214.659 369.998 213.87C371.547 208.699 372.552 203.381 372.997 198.001C373.082 196.47 342.121 198.427 342.121 198.427C342.121 198.427 372.754 191.537 373.203 187.43C374.709 173.725 370.848 158.403 365.846 141.806Z" fill="#84C4E2"/>
<path d="M312.023 256.128L341.162 194.283C341.065 193.554 341.005 192.825 340.92 192.084C340.628 189.573 340.345 187.058 340.07 184.539C339.378 178.33 338.977 172.097 338.188 165.9C337.265 158.476 336.974 158.61 336.974 158.61C337.896 158.173 338.601 163.312 338.941 165.171C339.487 168.087 339.766 170.675 340.227 173.604C341.126 179.448 342.012 185.268 342.656 191.136L365.87 141.818C365.87 141.818 354.057 170.833 343.141 196.142L343.384 196.057C344.234 195.741 364.025 194.842 373.228 187.188L372.973 188.123C363.903 197.102 342.911 198.317 342.146 198.439C338.503 206.944 337.192 209.605 333.453 217.758C333.95 217.781 334.448 217.736 334.934 217.624L337.362 217.32L346.104 216.251C352.867 215.437 359.666 214.866 366.429 214.149C368.019 213.979 369.112 213.967 369.112 213.967C369.112 213.967 362.434 215.401 358.015 216.166C351.373 217.308 344.659 218.365 338.054 219.386L335.262 219.811C334.351 220.085 333.38 220.085 332.469 219.811C323.448 239.434 315.24 255.302 312.023 256.128Z" fill="#AEE4F4"/>
<path d="M351.482 261.231L309.327 263.661L308.878 265.873C308.878 265.873 341.818 263.212 351.482 261.231Z" fill="#4E9DC4"/>
<path d="M311.695 182.947L334.169 211.124L331.595 216.47C331.595 216.47 311.27 186.033 311.695 182.947Z" fill="#AEE4F4"/>
<path d="M73.6379 108.283C82.7692 113.466 91.4163 119.46 99.4748 126.193C101.976 128.234 97.8357 171.246 97.8357 171.246C97.8357 171.246 107.549 131.952 108.933 133.289C120.355 144.093 130.614 156.066 139.542 169.011C140.197 169.958 131.82 182.668 132.475 183.591C148.332 207.393 170.818 225.886 174.217 261.45C174.217 261.45 176.561 283.199 174.217 281.79C171.874 280.38 112.296 328.24 112.296 328.24C112.296 328.24 104.331 315.422 94.7882 298.739C93.5741 296.516 117.723 285.374 116.424 283.09C115.514 281.449 89.106 288.606 88.1833 286.941C78.6159 269.506 68.9756 250.393 65.1146 237.891C64.6289 236.311 90.2959 236.396 89.8345 234.744C89.3003 232.763 62.1642 226.931 62.1642 226.931C58.5506 211.408 57.0315 195.471 57.6476 179.545C57.7205 177.577 92.19 184.684 92.19 184.684C92.19 184.684 58.364 168.525 58.6432 165.949C60.9434 146.124 65.9901 126.716 73.6379 108.283Z" fill="#72A398"/>
<path d="M73.6377 108.283C82.769 113.466 91.4162 119.46 99.4746 126.193C101.976 128.234 97.8356 171.246 97.8356 171.246C97.8356 171.246 107.549 131.952 108.933 133.289C120.355 144.093 130.614 156.066 139.541 169.011C140.221 169.995 135.037 178.196 135.693 179.193C151.476 202.983 170.83 225.959 174.217 261.486C174.217 261.486 176.561 283.235 174.217 281.826C171.874 280.417 121.244 247.331 121.244 247.331L73.6377 108.283Z" fill="#2E6A5E"/>
<path d="M73.638 108.283C73.638 108.283 109.103 221.767 112.952 232.69C113.911 235.388 63.8398 227.441 62.2129 226.931C62.31 227.089 112.296 243.261 113.911 235.436C123.248 261.766 125.36 260.065 129.416 261.523L73.638 108.283Z" fill="#3E8173"/>
<path d="M70.3354 173.652C70.7483 173.652 99.0256 187.309 99.0256 187.309L100.373 190.395L70.3354 173.652Z" fill="#FFE2CF"/>
<path d="M103.834 148.27L96.5732 176.033L96.9253 179.229L103.834 148.27Z" fill="#FFE2CF"/>
<path d="M170.684 365.918C162.877 373.342 136.773 369.563 117.056 361.751C111.321 359.479 105.744 356.829 100.361 353.816C104.477 353.586 130.375 350.621 124.11 312.08C123.831 310.367 102.984 332.177 99.827 353.537C91.328 348.75 82.6469 343.088 69.5463 330.658C62.6232 323.426 56.3842 315.567 50.9092 307.184C54.7823 305.3 72.2538 295.58 82.0398 269.822C82.6469 268.218 52.1112 278.047 50.2293 306.066C44.7301 297.053 40.2893 287.435 36.9951 277.403H37.1287C37.0111 277.105 36.9098 276.801 36.8251 276.492C36.8251 276.31 36.7401 276.127 36.7037 275.945C36.7037 276.103 36.7037 276.249 36.7037 276.407C34.4543 269.374 32.7016 262.192 31.4586 254.913C33.1584 253.115 38.9134 244.816 33.3769 218.596C33.037 216.98 24.3802 230.746 29.8438 251.402C31.0491 259.559 32.8839 267.61 35.3317 275.484C10.9153 256.42 0.121582 275.739 0.121582 275.739C13.8778 281.231 33.3405 277.294 35.526 276.018C38.8596 286.66 43.4662 296.859 49.2458 306.394C49.2458 306.394 51.0913 309.334 51.4191 309.832C56.8687 318.212 63.238 325.956 70.4083 332.918C70.414 332.938 70.414 332.959 70.4083 332.979H70.3354L71.1125 333.72C41.9731 327.292 23.7609 339.115 23.7609 339.115C45.4941 353.087 68.6114 338.714 72.4116 334.971C79.1073 341.156 86.3856 346.678 94.1448 351.459C95.5355 352.063 96.8384 352.852 98.0179 353.804C103.985 357.257 110.198 360.266 116.606 362.808C131.176 368.555 144.532 371.021 154.573 371.021C162.562 371.021 168.499 369.478 171.34 366.757L170.684 365.918Z" fill="#2AC5A2"/>
<path d="M98.0786 353.719C77.2925 344.862 56.5186 357.777 56.5186 357.777C76.8919 369.588 93.3435 359.065 98.0301 354.4C98.9164 353.634 98.1029 353.768 98.0786 353.719Z" fill="#008668"/>
<path d="M63.6211 243.99C64.2039 242.435 39.7754 250.806 36.6064 276.358C36.74 276.358 36.825 277.075 36.9464 277.403C41.1959 275.508 54.5515 267.756 63.6211 243.99Z" fill="#008668"/>
<path d="M50.4359 308.399C26.2987 288.205 10.0171 305.422 10.0171 305.422C23.9797 312.348 45.9436 311.193 51.2979 309.784C51.2979 309.784 50.4845 308.569 50.4602 308.423L50.4359 308.399Z" fill="#008668"/>
<path d="M94.6185 291.157C94.3514 289.505 75.7386 312.044 71.5498 332.651C71.7076 332.651 71.9383 332.833 72.1933 333.052C79.6117 331.909 100.119 325.251 94.6185 291.157Z" fill="#008668"/>
<path d="M277.58 310.916C284.49 317.487 307.594 314.143 325.047 307.228C330.122 305.217 335.059 302.871 339.823 300.205C336.18 300.001 313.258 297.377 318.803 263.264C319.05 261.748 337.502 281.052 340.296 299.958C347.818 295.72 355.502 290.709 367.098 279.707C373.225 273.306 378.747 266.35 383.593 258.93C380.165 257.263 364.701 248.66 356.04 225.86C355.502 224.441 382.53 233.141 384.195 257.941C389.063 249.964 392.993 241.451 395.909 232.571H395.791C395.895 232.307 395.984 232.038 396.059 231.765C396.059 231.603 396.135 231.442 396.167 231.281C396.167 231.42 396.167 231.549 396.167 231.689C398.158 225.465 399.709 219.107 400.809 212.665C399.305 211.073 394.211 203.728 399.111 180.52C399.412 179.09 407.074 191.275 402.239 209.557C401.172 216.777 399.548 223.903 397.381 230.872C418.992 213.998 428.546 231.098 428.546 231.098C416.37 235.959 399.144 232.474 397.209 231.345C394.259 240.764 390.181 249.791 385.066 258.231C385.066 258.231 383.432 260.833 383.142 261.274C378.319 268.691 372.681 275.545 366.335 281.708C366.33 281.725 366.33 281.744 366.335 281.761H366.399L365.711 282.417C391.503 276.728 407.623 287.192 407.623 287.192C388.386 299.56 367.925 286.837 364.561 283.525C358.635 288.999 352.193 293.887 345.325 298.119C344.094 298.653 342.941 299.351 341.897 300.194C336.615 303.25 331.116 305.914 325.444 308.163C312.549 313.25 300.727 315.433 291.84 315.433C284.769 315.433 279.514 314.067 276.999 311.658L277.58 310.916Z" fill="#2AC5A2"/>
<path d="M341.843 300.119C360.241 292.279 378.628 303.711 378.628 303.711C360.596 314.164 346.034 304.851 341.886 300.721C341.102 300.044 341.822 300.162 341.843 300.119Z" fill="#008668"/>
<path d="M372.342 202.997C371.826 201.62 393.448 209.03 396.252 231.646C396.134 231.646 396.059 232.281 395.952 232.571C392.19 230.893 380.369 224.032 372.342 202.997Z" fill="#008668"/>
<path d="M384.013 260.005C405.377 242.132 419.788 257.371 419.788 257.371C407.429 263.501 387.989 262.479 383.25 261.231C383.25 261.231 383.97 260.156 383.991 260.027L384.013 260.005Z" fill="#008668"/>
<path d="M344.906 244.745C345.143 243.282 361.617 263.232 365.325 281.471C365.185 281.471 364.981 281.632 364.755 281.826C358.189 280.815 340.038 274.922 344.906 244.745Z" fill="#008668"/>
<path d="M281.972 0H134.636C120.179 0 108.459 11.7284 108.459 26.196V351.107C108.459 365.575 120.179 377.303 134.636 377.303H281.972C296.429 377.303 308.149 365.575 308.149 351.107V26.196C308.149 11.7284 296.429 0 281.972 0Z" fill="#21414F"/>
<path d="M277.715 5.29407H138.486C124.824 5.29407 113.75 16.6217 113.75 30.5951V344.405C113.75 358.378 124.824 369.706 138.486 369.706H277.715C291.376 369.706 302.451 358.378 302.451 344.405V30.5951C302.451 16.6217 291.376 5.29407 277.715 5.29407Z" fill="#0079AB"/>
<path d="M249.688 19.5984H168.45C166.131 19.5984 163.908 18.6767 162.268 17.0361C160.629 15.3955 159.708 13.1703 159.708 10.8502V5.11523H258.418V10.8502C258.419 11.9984 258.195 13.1357 257.757 14.197C257.319 15.2584 256.676 16.2228 255.865 17.0354C255.054 17.8479 254.092 18.4924 253.032 18.9322C251.972 19.372 250.836 19.5984 249.688 19.5984Z" fill="#21414F"/>
<path d="M416.584 64.0563C413.84 37.2042 365.36 29.7682 318.907 35.2723C272.454 40.7764 270.669 51.3107 271.883 83.0715C272.284 93.4843 275.137 101.734 279.775 108.247C276.922 117.967 265.46 119.996 267.051 121.527C275.246 129.388 289.658 122.171 293.13 120.251C315.543 133.41 351.069 131.49 376.7 127.87C410.744 123.01 419.608 93.4965 416.584 64.0563Z" fill="#03A480"/>
<path d="M323.836 81.1032C323.85 82.0818 323.574 83.0426 323.041 83.8634C322.508 84.6842 321.743 85.3278 320.844 85.7123C319.944 86.0969 318.951 86.2051 317.99 86.023C317.029 85.841 316.144 85.377 315.447 84.6901C314.751 84.0032 314.274 83.1244 314.078 82.1656C313.882 81.2068 313.975 80.2112 314.346 79.3055C314.717 78.3999 315.348 77.6251 316.16 77.0798C316.972 76.5344 317.928 76.2432 318.906 76.2431C320.202 76.2398 321.447 76.7484 322.37 77.6585C323.293 78.5686 323.82 79.8065 323.836 81.1032Z" fill="white"/>
<path d="M348.192 81.1032C348.206 82.0818 347.929 83.0426 347.397 83.8634C346.864 84.6841 346.099 85.3277 345.2 85.7123C344.3 86.0969 343.307 86.205 342.346 86.023C341.385 85.841 340.5 85.377 339.803 84.6901C339.107 84.0032 338.63 83.1244 338.434 82.1656C338.238 81.2067 338.331 80.2111 338.702 79.3055C339.073 78.3999 339.704 77.6251 340.516 77.0797C341.328 76.5344 342.284 76.2431 343.262 76.243C344.557 76.2429 345.8 76.7526 346.722 77.662C347.645 78.5714 348.173 79.8075 348.192 81.1032Z" fill="white"/>
<path d="M371.6 81.1032C371.615 82.0818 371.338 83.0426 370.805 83.8634C370.273 84.6842 369.508 85.3278 368.608 85.7123C367.709 86.0969 366.716 86.2051 365.755 86.023C364.794 85.841 363.909 85.377 363.212 84.6901C362.515 84.0032 362.039 83.1244 361.842 82.1656C361.646 81.2068 361.739 80.2112 362.11 79.3055C362.481 78.3999 363.113 77.6251 363.925 77.0798C364.737 76.5344 365.693 76.2432 366.671 76.2431C367.967 76.2398 369.212 76.7484 370.135 77.6585C371.058 78.5686 371.584 79.8065 371.6 81.1032Z" fill="white"/>
<path d="M192.854 154.6C193.352 153.81 212.28 163.3 233.419 150.894C254.557 138.489 242.233 268.971 242.233 268.971L240.509 336.709L238.081 369.417H185.266L174.448 266.541C174.448 266.541 185.484 166.277 192.854 154.6Z" fill="#5DCEC1"/>
<path d="M288.237 173.859C279.617 166.435 239.902 151.356 239.902 151.356L233.419 162.948C233.419 162.948 235.519 306.698 234.439 336.308V369.454H282.895L283.138 294.596C297.161 291.036 307.931 285.131 313.844 278.643C320.57 271.28 322.185 267.136 322.185 257.343C322.185 247.55 296.87 181.282 288.237 173.859Z" fill="white"/>
<path d="M392.202 315.997H313.119C308.26 315.997 304.321 319.939 304.321 324.802V367.539C304.321 372.401 308.26 376.343 313.119 376.343H392.202C397.061 376.343 401 372.401 401 367.539V324.802C401 319.939 397.061 315.997 392.202 315.997Z" fill="#16C1F5"/>
<path d="M382.881 316.243H303.798C298.939 316.243 295 320.185 295 325.048V367.785C295 372.648 298.939 376.59 303.798 376.59H382.881C387.74 376.59 391.679 372.648 391.679 367.785V325.048C391.679 320.185 387.74 316.243 382.881 316.243Z" fill="#8DE4FF"/>
<path d="M348.142 333.491H333.268C330.975 333.539 328.695 333.129 326.562 332.284C324.429 331.44 322.486 330.177 320.847 328.571C319.208 326.965 317.905 325.048 317.016 322.932C316.127 320.815 315.669 318.543 315.669 316.247C315.669 313.952 316.127 311.679 317.016 309.563C317.905 307.447 319.208 305.529 320.847 303.923C322.486 302.317 324.429 301.055 326.562 300.21C328.695 299.366 330.975 298.955 333.268 299.004H348.142C352.649 299.099 356.939 300.958 360.093 304.181C363.246 307.405 365.013 311.736 365.013 316.247C365.013 320.758 363.246 325.09 360.093 328.313C356.939 331.537 352.649 333.395 348.142 333.491ZM333.268 306.315C330.645 306.315 328.13 307.358 326.275 309.214C324.42 311.07 323.378 313.588 323.378 316.213C323.378 318.838 324.42 321.355 326.275 323.211C328.13 325.067 330.645 326.11 333.268 326.11H348.142C350.765 326.11 353.281 325.067 355.135 323.211C356.99 321.355 358.032 318.838 358.032 316.213C358.032 313.588 356.99 311.07 355.135 309.214C353.281 307.358 350.765 306.315 348.142 306.315H333.268Z" fill="#8DE4FF"/>
<path d="M295 328.273C295.01 325.02 296.306 321.904 298.604 319.604C300.902 317.304 304.016 316.007 307.267 315.997H384.096C390.864 315.997 392.094 320.869 391.679 328.273H295Z" fill="white" fill-opacity="0.3"/>
<path d="M356.649 346.336H346.389V337.678C346.291 336.938 345.927 336.259 345.367 335.768C344.806 335.276 344.086 335.005 343.34 335.005C342.594 335.005 341.874 335.276 341.313 335.768C340.752 336.259 340.389 336.938 340.291 337.678V346.336H330.031C329.215 346.336 328.433 346.66 327.856 347.237C327.279 347.815 326.955 348.598 326.955 349.414C326.955 350.231 327.279 351.014 327.856 351.591C328.433 352.168 329.215 352.493 330.031 352.493H340.291V364.384C340.233 364.818 340.268 365.26 340.395 365.68C340.522 366.1 340.737 366.488 341.026 366.818C341.314 367.148 341.67 367.412 342.069 367.593C342.468 367.775 342.902 367.868 343.34 367.868C343.778 367.868 344.211 367.775 344.611 367.593C345.01 367.412 345.366 367.148 345.654 366.818C345.943 366.488 346.158 366.1 346.285 365.68C346.412 365.26 346.447 364.818 346.389 364.384V352.424H356.649C357.465 352.424 358.247 352.099 358.824 351.522C359.401 350.945 359.725 350.162 359.725 349.345C359.707 348.541 359.375 347.775 358.8 347.213C358.225 346.65 357.453 346.336 356.649 346.336Z" fill="#0079AB" fill-opacity="0.35"/>
<path d="M188.496 281.121C188.957 280.38 189.2 279.906 189.2 279.906V152.656C189.2 152.656 149.485 167.723 140.865 175.146C132.244 182.57 107.148 251.207 106.869 261C105.922 299.821 139.651 348.798 139.651 348.798C140.759 348.261 141.816 347.622 142.807 346.891C142.152 355.943 141.023 369.454 141.023 369.454H193.668C193.668 369.454 193.85 329.224 193.668 327.39C193.619 326.296 190.778 301.242 188.496 281.121Z" fill="white"/>
<path d="M272.964 246.432L264.1 251.705C263.999 251.765 263.884 251.797 263.767 251.797C263.649 251.797 263.534 251.765 263.433 251.705L254.059 246.432C253.952 246.384 253.858 246.308 253.79 246.212C253.722 246.116 253.681 246.003 253.671 245.885V226.19C253.671 226.013 253.741 225.843 253.866 225.717C253.992 225.592 254.162 225.521 254.339 225.521H272.551C272.726 225.525 272.893 225.596 273.015 225.721C273.138 225.846 273.206 226.015 273.206 226.19V245.885C273.214 245.989 273.196 246.094 273.154 246.189C273.111 246.285 273.046 246.368 272.964 246.432Z" fill="#D5E1ED"/>
<path d="M272.964 246.432L264.1 251.705C263.999 251.765 263.884 251.797 263.767 251.797C263.649 251.797 263.534 251.765 263.433 251.705L254.059 246.432C253.952 246.384 253.858 246.308 253.79 246.212C253.722 246.116 253.681 246.003 253.671 245.885V230.163C253.671 229.986 253.741 229.816 253.866 229.69C253.992 229.565 254.162 229.495 254.339 229.495H272.551C272.726 229.498 272.893 229.57 273.015 229.695C273.138 229.82 273.206 229.988 273.206 230.163V245.885C273.214 245.99 273.196 246.094 273.154 246.189C273.111 246.285 273.046 246.368 272.964 246.432Z" fill="#B8DDFF"/>
<g opacity="0.5">
<path opacity="0.5" d="M234.438 337.608V140.299C234.438 140.299 236.102 143.361 242.209 149.546C249.834 157.298 256.378 168.986 256.378 168.986L242.598 166.313L260.494 184.344L247.029 263.54L237.498 264.961L243.569 284.134L234.438 337.608Z" fill="#8FA7D7"/>
</g>
<g opacity="0.5">
<path opacity="0.5" d="M183.141 149.436C175.504 157.176 168.972 168.877 168.972 168.877L182.741 166.216L164.844 184.235L193.717 333.611L190.912 140.178C190.912 140.178 189.236 143.24 183.141 149.436Z" fill="#8FA7D7"/>
</g>
<path d="M234.439 329.346L231.44 138.768C231.44 138.768 234.536 140.105 240.643 146.289C248.268 154.029 253.38 167.443 253.38 167.443L239.599 164.782L257.495 182.801L244.674 264.293L238.106 265.812L242.962 275.532L234.439 329.346Z" fill="white"/>
<path d="M193.716 327.39V138.768C193.716 138.768 190.62 140.105 184.525 146.289C176.888 154.029 171.777 167.443 171.777 167.443L185.557 164.782L167.661 182.801L193.716 327.39Z" fill="white"/>
<path d="M215.146 342.784C207.991 342.808 200.848 342.194 193.801 340.949V339.844C194.008 339.844 214.939 344.023 234.439 339.844V340.949C228.091 342.243 221.624 342.858 215.146 342.784Z" fill="#38A595"/>
<path d="M212.487 172.072C206.031 172.107 199.638 170.795 193.716 168.221V166.908C193.911 166.993 213.143 176.131 231.877 166.07V167.37C225.913 170.549 219.243 172.166 212.487 172.072Z" fill="#38A595"/>
<path opacity="0.5" d="M124.389 261.049C124.389 261.049 138.728 263.807 146.183 271.267C146.183 271.267 127.606 261.972 124.389 261.049Z" fill="#8FA7D7"/>
<path d="M162.404 324.996L165.403 328.641C165.403 328.641 159.332 343.452 152.642 351.265L147.19 343.695C153.389 338.472 158.55 332.129 162.404 324.996Z" fill="#FFCCA9"/>
<path opacity="0.5" d="M141.362 261.049C141.702 261.62 146.522 266.213 148.125 270.696L140.561 262.082L141.362 261.049Z" fill="#8FA7D7"/>
<path opacity="0.5" d="M156.612 211.245C156.612 210.552 152.217 268.351 150.347 275.872L164.844 320.27C164.844 320.27 157.195 337.608 142.856 346.891C142.856 346.891 152.035 345.53 166.483 325.555C166.483 325.555 159.259 346.21 149.048 354.934C149.048 354.934 165.099 345.408 169.81 316.491L154.67 275.872C154.67 275.872 157.304 224.1 156.612 211.245Z" fill="#8FA7D7"/>
<path opacity="0.5" d="M283.138 294.596L276.145 296.613L277.213 302.87L283.138 300.586V294.596Z" fill="#8FA7D7"/>
<path opacity="0.5" d="M281.45 251.256L276.132 207.746L277.783 252.702C259.972 259.469 240.789 267.549 240.789 267.549C240.789 267.549 250.975 264.925 263.493 261.584C276.011 258.242 299.274 245.169 299.274 245.169C294.539 246.493 288.201 248.729 281.45 251.256Z" fill="#8FA7D7"/>
<path opacity="0.1" d="M306.074 208.827C306.074 208.827 317.292 239.033 317.414 258.643C317.414 265.933 313.298 272.009 310.299 274.135C281.099 295.374 245.111 296.127 245.111 296.127C245.111 296.127 244.808 300.987 244.128 301.91C244.128 301.91 307.846 297.682 320.024 270.077C321.869 266.607 322.615 262.657 322.161 258.753C320.983 245.727 313.735 227.429 306.074 208.827Z" fill="#8FA7D7"/>
<path opacity="0.1" d="M128.614 197.734C129.051 196.519 110.402 243.99 110.621 261.049C110.961 296.88 137.392 342.067 142.844 346.891L139.687 348.798C139.687 348.798 104.598 296.637 106.905 261C107.367 253.953 108.217 250.843 128.614 197.734Z" fill="#8FA7D7"/>
<path d="M244.298 301.619C246.362 280.623 240.327 267.683 241.032 267.367C247.843 264.293 264.768 257.647 278.415 252.337L278.998 221.403L209.318 218.572L207.74 321.57L277.164 318.787L277.589 296.321C266.617 298.8 255.497 300.569 244.298 301.619Z" fill="#AE376D"/>
<path d="M255.577 220.443L255.613 219.191L236.709 218.11L236.673 219.677L255.577 220.443Z" fill="#A1B5BF"/>
<path d="M239.101 221.767C239.101 221.819 239.09 221.871 239.07 221.919C239.05 221.967 239.02 222.01 238.983 222.046C238.945 222.083 238.901 222.111 238.853 222.13C238.804 222.149 238.752 222.158 238.7 222.156C238.597 222.156 238.498 222.115 238.426 222.042C238.353 221.969 238.312 221.87 238.312 221.767C238.31 221.715 238.319 221.663 238.338 221.615C238.357 221.566 238.385 221.522 238.421 221.484C238.457 221.447 238.501 221.417 238.549 221.397C238.597 221.377 238.648 221.366 238.7 221.366C238.806 221.366 238.908 221.408 238.984 221.484C239.059 221.559 239.101 221.661 239.101 221.767Z" fill="#A1B5BF"/>
<path d="M254.096 222.399C254.096 222.447 254.081 222.494 254.055 222.534C254.028 222.574 253.99 222.605 253.946 222.623C253.901 222.642 253.852 222.647 253.805 222.637C253.758 222.628 253.715 222.605 253.681 222.571C253.647 222.537 253.624 222.493 253.615 222.446C253.605 222.399 253.61 222.35 253.628 222.306C253.647 222.261 253.678 222.224 253.718 222.197C253.758 222.17 253.805 222.156 253.853 222.156C253.917 222.156 253.979 222.181 254.024 222.227C254.07 222.273 254.096 222.334 254.096 222.399Z" fill="#A1B5BF"/>
<path d="M243.048 113.945C241.056 121.102 237.56 126.582 236.03 126.169C236.03 126.169 237.11 121.6 238.531 114.31C240.194 105.805 240.425 99.8876 243.885 100.216C245.452 100.361 245.027 106.777 243.048 113.945Z" fill="#F0BA92"/>
<g opacity="0.6">
<path opacity="0.6" d="M240.389 111.017C238.579 118.222 237.56 126.618 236.03 126.205C236.03 126.205 237.547 119.705 238.98 112.415C240.631 103.909 240.461 101.03 243.922 101.346C243.958 101.297 242.586 102.22 240.389 111.017Z" fill="#D88D64"/>
</g>
<path d="M182.364 113.945C184.356 121.102 187.646 126.63 189.164 126.205C189.164 126.205 187.549 120.3 186.59 114.055C185.266 105.55 184.987 99.8389 181.527 100.167C179.96 100.361 180.385 106.777 182.364 113.945Z" fill="#F0BA92"/>
<g opacity="0.6">
<path opacity="0.6" d="M183.955 110.203C185.764 117.408 187.598 126.643 189.164 126.217C189.164 126.217 187.549 118.806 186.116 111.503C184.465 102.998 184.732 101.042 181.26 101.37C181.272 101.37 181.77 101.443 183.955 110.203Z" fill="#D88D64"/>
</g>
<path d="M231.707 155.548C231.707 155.548 229.085 162.462 212.585 162.462C196.084 162.462 193.717 155.973 193.717 155.973V134.965H231.44L231.707 155.548Z" fill="#F0BA92"/>
<g opacity="0.6">
<path opacity="0.6" d="M231.465 140.299C228.065 147.42 214.734 153.009 212.572 153.009C210.411 153.009 199.108 148.683 193.717 140.421V129.486H231.44L231.465 140.299Z" fill="#D88D64"/>
</g>
<path d="M236.03 126.169C229.74 146.824 212.572 147.189 212.572 147.189C212.572 147.189 194.445 147.189 189.03 125.67C185.448 111.503 176.889 89.815 187.16 73.7401C193 64.6396 235.435 61.0066 240.437 73.7401C245.439 86.4736 239.721 114.043 236.03 126.169Z" fill="#FFCCA9"/>
<path d="M221.8 125.403C222.504 125.986 220.355 133.459 212.597 133.544C206.004 133.605 202.701 126.837 203.296 125.816C204.037 124.601 206.66 125.415 212.33 125.415C218 125.415 221.047 124.771 221.8 125.403Z" fill="white"/>
<path d="M212.499 133.933C210.696 133.884 208.937 133.365 207.395 132.427C205.853 131.49 204.583 130.166 203.709 128.587C203.114 127.554 202.604 126.242 202.968 125.622C203.563 124.601 204.972 124.686 207.534 124.856C208.808 124.929 210.387 125.027 212.329 125.027C214.636 125.027 216.494 124.929 217.987 124.832C220.319 124.711 221.496 124.638 222.055 125.112C222.589 125.549 222.176 126.91 221.97 127.469C221.276 129.39 220 131.046 218.319 132.205C216.638 133.364 214.637 133.968 212.597 133.933H212.499ZM205.36 125.525C204.438 125.525 203.855 125.634 203.624 126.023C203.678 126.965 204.027 127.866 204.62 128.599C205.454 129.951 206.611 131.075 207.986 131.87C209.361 132.665 210.912 133.107 212.499 133.155H212.584C214.137 133.184 215.671 132.812 217.038 132.076C218.405 131.34 219.56 130.263 220.391 128.951C221.087 127.994 221.484 126.853 221.533 125.671C220.375 125.453 219.188 125.432 218.024 125.61C216.53 125.695 214.661 125.804 212.329 125.804C210.363 125.804 208.772 125.707 207.473 125.622C206.647 125.598 205.943 125.525 205.36 125.525Z" fill="#D3976E"/>
<path d="M212.609 119.085C211.872 118.618 211.319 117.91 211.045 117.082C210.77 116.254 210.791 115.356 211.103 114.541C211.599 112.524 211.868 110.458 211.904 108.381H212.681C212.638 110.532 212.353 112.672 211.831 114.76C211.583 115.414 211.568 116.134 211.789 116.799C212.011 117.463 212.454 118.03 213.046 118.405L212.609 119.085Z" fill="#D88D64"/>
<path d="M242.392 273.211L235.277 274.293C226.195 275.083 222.832 268.072 214.819 269.117C206.805 270.162 207.752 273.333 207.752 273.333C202.434 273.479 203.831 280.854 203.831 280.854C201.317 284.596 203.928 288.922 203.928 288.922C202.107 291.51 204.535 295.434 204.535 295.434C205.227 299.699 210.399 303.223 215.96 303.806H216.518H217.113H217.745C218.048 303.806 218.34 303.806 218.631 303.806H218.74L219.481 303.745C226.195 302.822 244.699 295.337 244.699 295.337C244.978 280.927 242.392 273.211 242.392 273.211Z" fill="#FFCCA9"/>
<path d="M207.752 273.333C207.752 273.333 212.354 274.244 214.843 274.414C218.079 274.736 221.297 275.223 224.483 275.872C224.483 275.872 217.004 275.253 214.77 275.107C213.119 275.046 207.048 273.406 207.752 273.333Z" fill="#D88D64"/>
<path d="M209.185 282.895C209.185 282.895 205.81 281.51 204.814 280.161C204.248 279.33 203.887 278.377 203.758 277.379C203.603 278.534 203.627 279.706 203.831 280.854L209.185 282.895Z" fill="#D88D64"/>
<path d="M209.318 290.927C207.746 290.247 206.235 289.434 204.802 288.497C203.902 287.724 203.216 286.732 202.811 285.617C202.959 286.787 203.352 287.913 203.964 288.922L209.318 290.927Z" fill="#D88D64"/>
<path d="M209.962 297.464C208.39 296.784 206.879 295.971 205.445 295.033C204.508 294.178 203.781 293.117 203.32 291.935C203.505 293.181 203.943 294.376 204.607 295.447L209.962 297.464Z" fill="#D88D64"/>
<path d="M208.42 271.401C208.42 271.401 207.606 273.284 209.075 273.54L209.306 273.868L207.752 273.284C207.724 272.941 207.768 272.596 207.883 272.271C207.999 271.946 208.181 271.65 208.42 271.401Z" fill="#D88D64"/>
<g opacity="0.1">
<path opacity="0.1" d="M182.947 185.851L183.275 165.195L181.551 165.536L181.223 185.948C171.886 187.552 170.016 204.174 169.688 225.303V226.518C169.688 230.831 171.995 231.913 174.921 232.374C175.992 232.524 177.07 232.61 178.151 232.63C178.307 233.006 178.59 233.317 178.95 233.507C179.31 233.697 179.726 233.756 180.125 233.672C180.523 233.589 180.88 233.368 181.134 233.049C181.388 232.73 181.522 232.332 181.514 231.925V230.479C181.503 230.044 181.331 229.628 181.03 229.314C180.729 228.999 180.322 228.808 179.888 228.778C179.454 228.747 179.025 228.88 178.683 229.15C178.342 229.419 178.113 229.807 178.042 230.236C175.711 230.127 172.821 229.616 171.886 227.891C170.951 226.166 171.51 222.618 171.583 220.2C172.202 201.695 174.217 187.637 182.789 187.637C191.361 187.637 195.392 201.658 195.963 220.115C196.048 222.435 196.448 225.838 195.586 227.563C194.724 229.288 192.684 229.823 190.584 230.102C190.456 229.685 190.178 229.331 189.804 229.107C189.43 228.883 188.987 228.806 188.559 228.89C188.131 228.975 187.75 229.216 187.49 229.565C187.229 229.915 187.107 230.348 187.148 230.783L187.318 232.204C187.365 232.611 187.553 232.988 187.848 233.272C188.144 233.555 188.529 233.727 188.937 233.757C189.345 233.787 189.751 233.674 190.084 233.437C190.418 233.201 190.659 232.855 190.766 232.459C194.129 231.986 197.942 230.503 197.82 226.093V224.355C197.815 224.331 197.815 224.306 197.82 224.282C197.395 202.643 193.182 186.057 182.947 185.851Z" fill="#0E3368"/>
<path opacity="0.1" d="M266.565 202.509C264.829 161.648 245.925 152.365 245.062 151.988C245.062 151.988 246.167 152.863 250.915 159.436C255.856 166.289 263.542 178.646 264.574 202.57C262.463 202.824 260.529 203.874 259.166 205.508C257.804 207.141 257.116 209.233 257.243 211.356C257.37 213.48 258.303 215.475 259.85 216.934C261.398 218.392 263.443 219.205 265.569 219.205C267.695 219.205 269.741 218.392 271.288 216.934C272.836 215.475 273.769 213.48 273.896 211.356C274.023 209.233 273.335 207.141 271.972 205.508C270.61 203.874 268.676 202.824 266.565 202.57V202.509Z" fill="#0E3368"/>
<path opacity="0.1" d="M277.504 296.248L277.152 318.896L214.211 321.302L214.114 329.261L281.462 326.405V295.264L277.504 296.248Z" fill="#0E3368"/>
</g>
<path d="M195.392 222.144C194.967 200.37 191.75 183.846 181.32 183.846C170.891 183.846 167.649 200.929 167.309 223.189V224.404C167.309 228.729 169.604 229.798 172.542 230.26C173.612 230.417 174.691 230.502 175.772 230.515C175.928 230.892 176.21 231.202 176.571 231.393C176.931 231.583 177.346 231.642 177.745 231.558C178.144 231.474 178.501 231.254 178.755 230.935C179.009 230.616 179.143 230.218 179.135 229.811V228.365C179.135 227.897 178.949 227.449 178.619 227.119C178.289 226.789 177.841 226.603 177.374 226.603C176.952 226.606 176.545 226.763 176.229 227.045C175.914 227.327 175.713 227.714 175.662 228.134C173.319 228.012 170.442 227.514 169.495 225.777C168.548 224.039 169.118 220.503 169.203 218.086C169.822 199.581 172.846 185.669 181.405 185.669C189.965 185.669 192.976 199.544 193.547 218.013C193.62 220.333 194.02 223.723 193.158 225.461C192.296 227.198 190.269 227.709 188.168 228C188.053 227.57 187.779 227.199 187.401 226.963C187.023 226.726 186.57 226.642 186.133 226.727C185.696 226.812 185.307 227.059 185.044 227.419C184.782 227.78 184.666 228.226 184.72 228.668L184.902 230.102C184.951 230.508 185.14 230.885 185.437 231.166C185.733 231.448 186.118 231.618 186.526 231.647C186.934 231.676 187.339 231.561 187.672 231.324C188.005 231.086 188.244 230.74 188.35 230.345C191.713 229.883 195.514 228.389 195.392 223.978V222.241C195.402 222.209 195.402 222.175 195.392 222.144Z" fill="#383F47"/>
<path d="M181.551 184.745H179.827V165.888L181.551 165.548V184.745Z" fill="#383F47"/>
<path d="M260.227 197.734C259.329 173.251 251.522 160.712 246.52 153.774C241.772 147.189 240.667 146.314 240.667 146.314C241.481 146.703 260.689 156.034 262.206 197.661L260.227 197.734Z" fill="#383F47"/>
<path d="M261.332 198.196C259.997 172.741 253.926 161.599 248.924 154.661C244.164 148.076 240.643 146.29 240.643 146.29C241.457 146.666 260.689 156.848 262.206 198.414L261.332 198.196Z" fill="#1A2026"/>
<path d="M269.77 205.218C269.773 206.884 269.281 208.513 268.358 209.9C267.435 211.286 266.122 212.367 264.585 213.006C263.047 213.645 261.355 213.814 259.722 213.49C258.089 213.167 256.589 212.366 255.411 211.189C254.233 210.012 253.431 208.511 253.105 206.878C252.779 205.244 252.945 203.55 253.582 202.011C254.218 200.472 255.297 199.156 256.681 198.23C258.064 197.305 259.692 196.81 261.356 196.81C263.586 196.81 265.724 197.696 267.302 199.272C268.879 200.849 269.767 202.987 269.77 205.218Z" fill="#BCBCBC"/>
<path d="M261.357 213.882C259.644 213.882 257.97 213.373 256.546 212.421C255.122 211.468 254.012 210.115 253.358 208.531C252.703 206.947 252.532 205.205 252.867 203.524C253.202 201.843 254.028 200.299 255.24 199.088C256.451 197.877 257.995 197.053 259.675 196.72C261.355 196.387 263.096 196.561 264.678 197.218C266.259 197.876 267.611 198.988 268.56 200.414C269.51 201.841 270.016 203.517 270.013 205.231C270.01 207.526 269.097 209.727 267.474 211.349C265.85 212.971 263.65 213.882 261.357 213.882ZM261.357 197.053C259.74 197.053 258.161 197.533 256.817 198.432C255.473 199.33 254.426 200.607 253.807 202.101C253.189 203.596 253.027 205.24 253.342 206.826C253.658 208.412 254.436 209.869 255.579 211.013C256.721 212.156 258.177 212.935 259.762 213.251C261.347 213.566 262.99 213.404 264.484 212.785C265.977 212.166 267.253 211.118 268.151 209.774C269.048 208.429 269.528 206.848 269.528 205.231C269.524 203.063 268.663 200.985 267.131 199.452C265.599 197.919 263.523 197.057 261.357 197.053Z" fill="#444444"/>
<g opacity="0.3">
<path opacity="0.3" d="M265.533 212.837L263.384 208.365L264.878 204.246L269.516 202.266C269.516 202.266 272.235 208.22 265.509 212.837H265.533Z" fill="white"/>
</g>
<path d="M265.132 205.79C265.097 206.531 264.844 207.246 264.406 207.845C263.969 208.444 263.365 208.902 262.669 209.16C261.974 209.419 261.218 209.468 260.495 209.301C259.773 209.134 259.115 208.758 258.604 208.22C258.093 207.682 257.75 207.006 257.62 206.275C257.489 205.544 257.576 204.791 257.869 204.109C258.162 203.427 258.649 202.847 259.269 202.439C259.889 202.031 260.615 201.815 261.356 201.816C262.383 201.845 263.356 202.279 264.063 203.023C264.771 203.768 265.155 204.762 265.132 205.79Z" fill="#635B53"/>
<g opacity="0.4">
<path opacity="0.4" d="M260.033 196.507L260.494 201.622L257.666 204.963L252.627 205.218C252.627 205.218 252.129 198.524 260.033 196.507Z" fill="white"/>
</g>
<path d="M264.72 205.218C264.722 205.885 264.527 206.537 264.159 207.092C263.791 207.647 263.266 208.08 262.652 208.337C262.037 208.593 261.361 208.662 260.708 208.533C260.054 208.405 259.454 208.085 258.983 207.615C258.511 207.145 258.189 206.545 258.059 205.892C257.928 205.239 257.994 204.561 258.248 203.945C258.502 203.33 258.933 202.803 259.487 202.433C260.04 202.063 260.691 201.865 261.356 201.865C262.246 201.865 263.1 202.218 263.73 202.846C264.361 203.475 264.716 204.328 264.72 205.218Z" fill="#D3D3D3"/>
<path d="M261.357 208.827C260.636 208.827 259.932 208.613 259.333 208.213C258.734 207.812 258.267 207.243 257.992 206.577C257.716 205.911 257.644 205.178 257.784 204.471C257.925 203.764 258.272 203.114 258.781 202.604C259.291 202.095 259.94 201.748 260.646 201.607C261.353 201.466 262.085 201.538 262.751 201.814C263.416 202.09 263.985 202.557 264.385 203.157C264.786 203.756 264.999 204.461 264.999 205.182C264.999 206.149 264.615 207.076 263.932 207.759C263.249 208.443 262.323 208.827 261.357 208.827ZM261.357 202.108C260.74 202.108 260.136 202.291 259.623 202.634C259.11 202.977 258.71 203.465 258.474 204.036C258.238 204.606 258.176 205.234 258.296 205.84C258.417 206.445 258.714 207.002 259.15 207.439C259.587 207.875 260.143 208.173 260.748 208.293C261.353 208.414 261.981 208.352 262.551 208.115C263.121 207.879 263.608 207.479 263.951 206.965C264.294 206.452 264.477 205.848 264.477 205.231C264.464 204.41 264.13 203.627 263.547 203.05C262.964 202.472 262.177 202.147 261.357 202.144V202.108Z" fill="#A8A6A0"/>
<path d="M262.668 205.619C262.668 205.882 262.59 206.138 262.444 206.356C262.298 206.574 262.091 206.744 261.848 206.844C261.605 206.944 261.339 206.969 261.082 206.917C260.825 206.865 260.589 206.738 260.404 206.551C260.22 206.365 260.095 206.128 260.045 205.87C259.995 205.613 260.023 205.346 260.125 205.104C260.227 204.862 260.399 204.656 260.618 204.512C260.837 204.368 261.094 204.293 261.357 204.295C261.53 204.295 261.701 204.329 261.861 204.396C262.021 204.463 262.166 204.56 262.288 204.684C262.41 204.807 262.506 204.953 262.572 205.113C262.637 205.274 262.669 205.446 262.668 205.619Z" fill="#BABABA"/>
<path d="M261.357 206.543C262.088 206.543 262.68 205.95 262.68 205.218C262.68 204.487 262.088 203.894 261.357 203.894C260.626 203.894 260.033 204.487 260.033 205.218C260.033 205.95 260.626 206.543 261.357 206.543Z" fill="white"/>
<path d="M177.144 227.32H176.779C176.478 227.32 176.233 227.565 176.233 227.867V230.175C176.233 230.477 176.478 230.722 176.779 230.722H177.144C177.445 230.722 177.69 230.477 177.69 230.175V227.867C177.69 227.565 177.445 227.32 177.144 227.32Z" fill="#AAA9A2"/>
<path d="M186.705 227.282L186.342 227.316C186.042 227.345 185.821 227.611 185.85 227.912L186.067 230.21C186.096 230.511 186.362 230.732 186.663 230.703L187.025 230.669C187.326 230.64 187.546 230.373 187.518 230.073L187.3 227.775C187.272 227.474 187.005 227.253 186.705 227.282Z" fill="#AAA9A2"/>
<g opacity="0.4">
<path opacity="0.4" d="M260.495 202.339C259.95 202.498 259.463 202.812 259.094 203.244C258.725 203.675 258.49 204.206 258.418 204.769L260.313 204.915L260.81 204.417L260.495 202.339Z" fill="white"/>
</g>
<g opacity="0.4">
<path opacity="0.4" d="M263.154 207.697C263.611 207.357 263.959 206.891 264.155 206.355C264.352 205.82 264.388 205.239 264.259 204.684L262.437 205.206L262.146 205.85L263.154 207.697Z" fill="white"/>
</g>
<path d="M185.218 111.795C185.218 111.795 181.575 97.4088 180.944 90.143C180.312 82.8771 179.535 73.1326 187.719 69.7912C195.902 66.4499 193.389 76.6197 193.389 76.6197C193.389 76.6197 186.917 80.9695 185.618 91.8683C184.914 97.7976 185.218 111.795 185.218 111.795Z" fill="#2A445D"/>
<path d="M239.611 111.576C239.611 111.576 243.63 97.4088 244.285 90.143C244.941 82.8771 245.694 73.1326 237.511 69.7912C229.327 66.4499 231.84 76.6197 231.84 76.6197C231.84 76.6197 238.312 80.9695 239.611 91.8683C240.315 97.7976 239.611 111.576 239.611 111.576Z" fill="#2A445D"/>
<path d="M232.921 80.1069C232.921 80.1069 222.953 81.6986 216.275 78.5516C214.321 77.6282 204.826 81.6743 200.492 80.8602C197.909 80.3819 195.471 79.3157 193.365 77.744C191.26 76.1723 189.544 74.1372 188.35 71.7961C187.864 69.7427 185.922 66.8266 191.908 62.2945C200.261 56.025 210.569 57.5438 212.293 55.7091C213.096 54.7127 214.148 53.9456 215.341 53.4849C216.535 53.0242 217.828 52.8861 219.092 53.0846C228.04 53.9837 228.478 59.2448 233.516 60.0346C240.06 61.0552 242.27 63.6797 242.695 69.2081C243.436 79.6816 232.921 80.1069 232.921 80.1069Z" fill="#2A445D"/>
<path d="M213.944 54.3118C213.944 54.3118 211.176 56.3409 204.097 64.5302C197.019 72.7194 193.389 72.2213 192.587 72.3671C192.587 72.3671 198.658 73.4242 205.105 64.9554C211.552 56.4867 213.944 54.3118 213.944 54.3118Z" fill="#1F384C"/>
<path d="M225.005 79.8396C225.005 79.8396 236.758 81.2247 241.881 75.0767C241.881 75.0767 240.801 81.5042 225.272 79.9368L225.005 79.8396Z" fill="#1F384C"/>
<path d="M205.664 80.0096C191.811 81.9415 187.84 70.5081 187.901 70.7147C188.744 73.3676 190.273 75.7504 192.333 77.6216C194.393 79.4929 196.91 80.7862 199.63 81.3705C200.82 81.6959 202.041 81.8995 203.272 81.978C203.928 82.0387 204.328 82.0387 204.328 82.0387C217.575 82.1481 228.296 68.1388 228.296 68.1388C219.299 75.8664 211.322 78.8918 205.664 80.0096Z" fill="#1F384C"/>
<path d="M229.303 97.3481C227.66 96.167 225.623 95.6704 223.621 95.9629C223.414 96.0043 223.2 95.991 223 95.9245C222.8 95.8579 222.621 95.7404 222.48 95.5835C222.339 95.4265 222.241 95.2356 222.197 95.0294C222.152 94.8233 222.162 94.609 222.225 94.4077C222.269 94.196 222.369 94 222.514 93.8398C222.659 93.6796 222.844 93.5611 223.05 93.4964C224.406 93.0015 225.877 92.9126 227.283 93.2406C228.689 93.5686 229.969 94.2992 230.966 95.3433C231.12 95.5004 231.229 95.6964 231.28 95.9104C231.332 96.1244 231.324 96.3484 231.258 96.5583V96.6434C231.217 96.8483 231.123 97.0392 230.987 97.1976C230.851 97.3559 230.676 97.4763 230.479 97.5472C230.282 97.6181 230.071 97.637 229.865 97.6021C229.659 97.5672 229.465 97.4797 229.303 97.3481Z" fill="#2A445D"/>
<path d="M223.281 107.761C224.099 107.761 224.762 106.918 224.762 105.878C224.762 104.837 224.099 103.994 223.281 103.994C222.462 103.994 221.799 104.837 221.799 105.878C221.799 106.918 222.462 107.761 223.281 107.761Z" fill="#210601"/>
<path d="M202.385 103.836C201.993 103.74 201.58 103.769 201.204 103.919C200.829 104.069 200.509 104.332 200.291 104.673C200.072 105.013 199.964 105.413 199.984 105.817C200.003 106.221 200.148 106.609 200.398 106.927C200.648 107.245 200.991 107.477 201.379 107.591C201.767 107.704 202.18 107.694 202.562 107.561C202.944 107.428 203.275 107.179 203.509 106.849C203.743 106.519 203.868 106.124 203.867 105.72C203.915 105.274 203.787 104.828 203.51 104.476C203.233 104.124 202.829 103.894 202.385 103.836Z" fill="#210601"/>
<path d="M229.218 103.958C228.81 102.592 227.946 101.407 226.771 100.601C225.596 99.7952 224.18 99.4168 222.76 99.5291C221.339 99.6414 220.001 100.238 218.966 101.218C217.932 102.199 217.265 103.505 217.076 104.918C216.548 104.31 215.902 103.817 215.176 103.469C214.451 103.121 213.662 102.925 212.858 102.893C212.054 102.861 211.252 102.994 210.501 103.284C209.75 103.573 209.067 104.014 208.492 104.577C208.241 103.209 207.54 101.963 206.501 101.039C205.461 100.114 204.143 99.5633 202.755 99.4739C201.367 99.3846 199.989 99.7617 198.84 100.545C197.691 101.329 196.836 102.475 196.412 103.8C186.007 100.155 183.445 99.6323 182.753 99.7538C182.546 99.7538 182.376 100.106 182.34 100.276L182.874 100.495C182.907 100.448 182.943 100.403 182.983 100.361C183.894 100.252 190.365 102.354 196.217 104.432C196.13 104.856 196.086 105.287 196.084 105.72C196.078 107.101 196.529 108.445 197.368 109.542C198.206 110.639 199.385 111.426 200.718 111.782C202.052 112.137 203.465 112.041 204.738 111.506C206.011 110.972 207.071 110.031 207.752 108.83C207.937 108.799 208.117 108.742 208.286 108.66C208.467 108.567 208.631 108.443 208.772 108.295C209.037 107.996 209.206 107.623 209.257 107.226C209.397 106.509 209.267 105.765 208.893 105.136C209.4 104.611 210.011 104.198 210.688 103.925C211.364 103.651 212.09 103.523 212.82 103.548C213.549 103.573 214.264 103.751 214.92 104.071C215.576 104.391 216.158 104.845 216.627 105.404C216.316 106.014 216.214 106.71 216.336 107.384C216.39 107.777 216.559 108.144 216.821 108.441C216.958 108.594 217.123 108.718 217.307 108.806C217.473 108.897 217.654 108.959 217.841 108.988C218.523 110.189 219.583 111.13 220.855 111.664C222.128 112.198 223.542 112.295 224.875 111.94C226.209 111.584 227.387 110.797 228.225 109.7C229.064 108.603 229.515 107.259 229.509 105.878C229.508 105.445 229.463 105.013 229.376 104.59C235.325 102.475 241.784 100.325 242.525 100.507L243.193 100.228C243.023 99.7903 242.743 99.1585 229.218 103.958ZM202.385 111.333C201.275 111.335 200.19 111.008 199.266 110.393C198.342 109.778 197.621 108.902 197.194 107.876C196.768 106.851 196.655 105.722 196.87 104.632C197.085 103.542 197.619 102.541 198.403 101.755C199.186 100.968 200.186 100.433 201.274 100.215C202.363 99.9974 203.491 100.108 204.517 100.532C205.543 100.957 206.419 101.676 207.036 102.6C207.653 103.523 207.983 104.609 207.983 105.72C207.983 107.206 207.393 108.632 206.344 109.685C205.295 110.737 203.871 111.33 202.385 111.333ZM208.626 107.542C208.564 107.685 208.473 107.813 208.359 107.919L208.201 108.004C208.462 107.337 208.606 106.63 208.626 105.914C208.688 106.028 208.733 106.151 208.76 106.279C208.819 106.704 208.773 107.138 208.626 107.542ZM217.307 108.065C217.198 107.959 217.108 107.836 217.04 107.7C216.902 107.311 216.856 106.895 216.906 106.485C216.931 106.357 216.976 106.234 217.04 106.121C217.063 106.836 217.206 107.543 217.465 108.21L217.307 108.065ZM223.281 111.479C222.174 111.476 221.093 111.146 220.174 110.529C219.256 109.912 218.54 109.036 218.118 108.013C217.696 106.989 217.587 105.863 217.805 104.777C218.022 103.692 218.556 102.695 219.339 101.913C220.123 101.13 221.12 100.598 222.205 100.383C223.291 100.168 224.416 100.28 225.438 100.704C226.46 101.128 227.333 101.846 227.948 102.767C228.562 103.688 228.89 104.77 228.89 105.878C228.887 107.358 228.3 108.777 227.256 109.826C226.212 110.875 224.796 111.469 223.317 111.479H223.281Z" fill="#302420"/>
<path d="M196.363 97.1901C198.006 96.0091 200.043 95.5125 202.045 95.805C202.251 95.8454 202.463 95.8319 202.662 95.7659C202.86 95.6998 203.039 95.5835 203.179 95.4283C203.32 95.273 203.418 95.084 203.464 94.8796C203.51 94.6753 203.502 94.4625 203.442 94.2619C203.399 94.048 203.301 93.8494 203.155 93.687C203.01 93.5245 202.824 93.4041 202.616 93.3385C201.259 92.8466 199.787 92.7605 198.382 93.0905C196.976 93.4206 195.697 94.1527 194.7 95.1975C194.546 95.3546 194.437 95.5507 194.386 95.7646C194.335 95.9786 194.342 96.2026 194.408 96.4125V96.4368C194.443 96.6459 194.531 96.8424 194.665 97.0067C194.798 97.1711 194.973 97.2976 195.17 97.3738C195.368 97.4499 195.582 97.473 195.791 97.4408C196 97.4086 196.198 97.3222 196.363 97.1901Z" fill="#2A445D"/>
<path d="M168.948 222.946C168.948 222.946 167.321 189.715 178.54 185.389C179.632 184.988 180.798 184.829 181.957 184.923C183.116 185.018 184.241 185.363 185.254 185.936C191.191 189.071 192.672 200.443 193.134 205.607C193.716 212.302 194.627 222.034 193.449 224.756C193.449 224.756 193.862 209.301 191.276 198.025C188.69 186.75 183.809 185.499 180.689 185.681C177.568 185.863 173.95 189.326 171.923 196.191C169.895 203.056 168.948 222.946 168.948 222.946Z" fill="#1A2026"/>
<path d="M167.333 225.4C167.611 226.271 168.1 227.06 168.757 227.696C169.414 228.332 170.218 228.796 171.097 229.045C171.87 229.284 172.69 229.325 173.483 229.166C174.276 229.007 175.017 228.652 175.638 228.134C175.517 228.943 175.555 229.768 175.747 230.564C175.747 230.564 167.6 231.378 167.333 225.4Z" fill="#1A2026"/>
<path d="M195.392 223.128C195.442 224.004 195.279 224.88 194.918 225.679C194.631 226.335 194.207 226.921 193.676 227.398C193.144 227.876 192.516 228.235 191.834 228.45C189.127 229.883 188.192 227.976 188.192 227.976C188.367 228.744 188.428 229.535 188.374 230.321C188.374 230.321 196.023 230.09 195.392 223.128Z" fill="#1A2026"/>
<path d="M179.827 165.888L181.551 165.548L181.454 166.435L179.827 166.751V165.888Z" fill="#1A2026"/>
</svg>
