<svg width="89" height="89" viewBox="0 0 89 89" fill="none" xmlns="http://www.w3.org/2000/svg">
<path d="M51.5508 1.82422H4.05078C2.82108 1.82422 1.82422 2.82108 1.82422 4.05078V84.9492C1.82422 86.1789 2.82108 87.1758 4.05078 87.1758H51.5508C52.7805 87.1758 53.7773 86.1789 53.7773 84.9492V4.05078C53.7773 2.82108 52.7805 1.82422 51.5508 1.82422Z" fill="white"/>
<path d="M1.82422 78.2695H53.7773V84.9492C53.7773 85.5397 53.5428 86.1061 53.1252 86.5236C52.7076 86.9412 52.1413 87.1758 51.5508 87.1758H4.05078C3.46026 87.1758 2.89393 86.9412 2.47636 86.5236C2.0588 86.1061 1.82422 85.5397 1.82422 84.9492V78.2695Z" fill="#0079AB"/>
<path d="M21.9376 45.9138H33.6642C36.0263 45.9138 38.2916 46.8522 39.9618 48.5224C41.6321 50.1926 42.5704 52.458 42.5704 54.8201V63.7263H13.0314V54.8201C13.0314 52.458 13.9697 50.1926 15.64 48.5224C17.3102 46.8522 19.5755 45.9138 21.9376 45.9138Z" fill="#00C3FB"/>
<path d="M23.3477 39.9956H32.2539V46.3717C32.2539 47.5528 31.7847 48.6854 30.9496 49.5206C30.1145 50.3557 28.9818 50.8249 27.8008 50.8249C26.6197 50.8249 25.4871 50.3557 24.6519 49.5206C23.8168 48.6854 23.3477 47.5528 23.3477 46.3717V39.9956Z" fill="white"/>
<path d="M20.3789 30.4534H35.2227V38.6538C35.2227 40.445 34.5111 42.1629 33.2445 43.4295C31.9779 44.6961 30.26 45.4077 28.4688 45.4077H27.1328C25.3416 45.4077 23.6237 44.6961 22.3571 43.4295C21.0905 42.1629 20.3789 40.445 20.3789 38.6538V30.4534Z" fill="white"/>
<path d="M34.8797 25.7894C35.3811 25.7895 35.8743 25.9166 36.3133 26.1588C36.7523 26.4011 37.1228 26.7505 37.3902 27.1746C37.6576 27.5987 37.8133 28.0836 37.8427 28.5842C37.8721 29.0847 37.7742 29.5845 37.5583 30.037L37.464 30.2351C37.0996 31.0055 36.5239 31.6566 35.8038 32.1125C35.0838 32.5685 34.2491 32.8105 33.3968 32.8105H24.9314C24.5571 32.8074 24.1862 32.8825 23.8425 33.031C23.4988 33.1795 23.19 33.3981 22.9357 33.6729C22.3905 34.2985 22.0027 35.0454 21.8046 35.8513C21.7395 36.1096 21.5899 36.3388 21.3796 36.5023C21.1692 36.6659 20.9103 36.7544 20.6438 36.7538H20.6141C20.45 36.7543 20.2874 36.7224 20.1356 36.6599C19.9838 36.5975 19.8458 36.5058 19.7295 36.39C19.6132 36.2742 19.5209 36.1365 19.4579 35.985C19.3948 35.8335 19.3623 35.671 19.3621 35.5069V32.1426C19.362 31.3082 19.5262 30.482 19.8455 29.7112C20.1647 28.9404 20.6327 28.24 21.2226 27.65C21.8126 27.06 22.513 26.5921 23.2838 26.2728C24.0547 25.9536 24.8809 25.7893 25.7152 25.7894H34.8797Z" fill="#0079AB"/>
<path d="M44.5 10.7305V37.28L51.9219 32.0105H82.7227C83.9037 32.0105 85.0364 31.5413 85.8715 30.7062C86.7066 29.8711 87.1758 28.7384 87.1758 27.5573V10.7305C87.1758 9.54943 86.7066 8.41676 85.8715 7.58163C85.0364 6.74651 83.9037 6.27734 82.7227 6.27734H48.9531C47.7721 6.27734 46.6394 6.74651 45.8043 7.58163C44.9692 8.41676 44.5 9.54943 44.5 10.7305Z" fill="#0079AB"/>
<path d="M63.5691 19.9796H68.7644C69.8096 19.9796 70.812 20.3948 71.5511 21.1339C72.2902 21.873 72.7054 22.8754 72.7054 23.9206V25.7902H59.6281V23.9214C59.628 23.4038 59.7298 22.8912 59.9278 22.413C60.1258 21.9347 60.4161 21.5002 60.7821 21.1342C61.1481 20.7681 61.5825 20.4778 62.0607 20.2797C62.5389 20.0816 63.0515 19.9796 63.5691 19.9796Z" fill="white"/>
<path d="M66.1644 20.3752C68.341 20.3752 70.1054 18.6107 70.1054 16.4342C70.1054 14.2576 68.341 12.4932 66.1644 12.4932C63.9878 12.4932 62.2234 14.2576 62.2234 16.4342C62.2234 18.6107 63.9878 20.3752 66.1644 20.3752Z" fill="white"/>
<path d="M1.82422 40.7274C2.16863 40.7272 2.49888 40.5903 2.74241 40.3468C2.98595 40.1032 3.12285 39.773 3.12305 39.4286V36.0264C3.12305 35.6819 2.98621 35.3515 2.74263 35.108C2.49905 34.8644 2.16869 34.7275 1.82422 34.7275C1.47975 34.7275 1.14939 34.8644 0.905809 35.108C0.662231 35.3515 0.525391 35.6819 0.525391 36.0264V39.4286C0.525587 39.773 0.662491 40.1032 0.906026 40.3468C1.14956 40.5903 1.47981 40.7272 1.82422 40.7274Z" fill="#373737"/>
<path d="M32.2539 7.57617C32.5984 7.57617 32.9287 7.43933 33.1723 7.19575C33.4159 6.95218 33.5527 6.62181 33.5527 6.27734C33.5527 5.93287 33.4159 5.60251 33.1723 5.35893C32.9287 5.11536 32.5984 4.97852 32.2539 4.97852H23.3477C23.0032 4.97852 22.6728 5.11536 22.4292 5.35893C22.1857 5.60251 22.0488 5.93287 22.0488 6.27734C22.0488 6.62181 22.1857 6.95218 22.4292 7.19575C22.6728 7.43933 23.0032 7.57617 23.3477 7.57617H32.2539Z" fill="#373737"/>
<path d="M30.0273 81.4238H25.5742C25.2297 81.4238 24.8994 81.5607 24.6558 81.8042C24.4122 82.0478 24.2754 82.3782 24.2754 82.7227C24.2754 83.0671 24.4122 83.3975 24.6558 83.6411C24.8994 83.8846 25.2297 84.0215 25.5742 84.0215H30.0273C30.3718 84.0215 30.7022 83.8846 30.9458 83.6411C31.1893 83.3975 31.3262 83.0671 31.3262 82.7227C31.3262 82.3782 31.1893 82.0478 30.9458 81.8042C30.7022 81.5607 30.3718 81.4238 30.0273 81.4238Z" fill="#373737"/>
<path d="M13.0314 58.8799C12.687 58.8801 12.3567 59.017 12.1132 59.2605C11.8696 59.504 11.7327 59.8343 11.7325 60.1787V63.7301C11.7327 64.0745 11.8696 64.4047 12.1132 64.6482C12.3567 64.8918 12.687 65.0287 13.0314 65.0289H42.5704C42.9148 65.0287 43.2451 64.8918 43.4886 64.6482C43.7322 64.4047 43.8691 64.0745 43.8693 63.7301V54.8238C43.8655 52.1513 42.8141 49.5867 40.9409 47.6806C39.0676 45.7745 36.5218 44.6787 33.8497 44.6284C34.6897 43.8755 35.3617 42.9542 35.822 41.9244C36.2824 40.8947 36.5207 39.7795 36.5216 38.6515V33.189C37.438 32.6066 38.1713 31.7772 38.6368 30.7962L38.7326 30.5973C39.0431 29.9468 39.1837 29.2282 39.1414 28.5086C39.0991 27.789 38.8753 27.0918 38.4908 26.4821C38.1063 25.8723 37.5736 25.3699 36.9424 25.0217C36.3113 24.6735 35.6022 24.4908 34.8814 24.4906H25.7154C23.6867 24.493 21.7417 25.2999 20.3072 26.7344C18.8727 28.1689 18.0658 30.1139 18.0634 32.1426V35.5069C18.0646 35.8989 18.1571 36.2852 18.3336 36.6352C18.5101 36.9853 18.7657 37.2894 19.0802 37.5234V38.6515C19.0811 39.7794 19.3195 40.8944 19.7798 41.9241C20.2402 42.9537 20.9122 43.8749 21.7521 44.6276C19.2187 44.6818 16.7953 45.6732 14.9503 47.4101C13.1053 49.1471 11.9697 51.5064 11.763 54.0319C11.7366 54.3751 11.8475 54.7148 12.0714 54.9763C12.2953 55.2378 12.6139 55.3997 12.9572 55.4265C12.9906 55.4265 13.0247 55.4302 13.0581 55.4302C13.385 55.4298 13.6998 55.3061 13.9395 55.0837C14.1792 54.8614 14.3261 54.5568 14.351 54.2308C14.5071 52.3238 15.3733 50.545 16.7782 49.2461C18.1831 47.9471 20.0243 47.2228 21.9376 47.2164H22.1187C22.32 48.5796 23.0046 49.825 24.0478 50.7254C25.0909 51.6258 26.4229 52.1212 27.8009 52.1212C29.1789 52.1212 30.5109 51.6258 31.5541 50.7254C32.5972 49.825 33.2818 48.5796 33.4831 47.2164H33.6642C35.6811 47.2185 37.6149 48.0207 39.0411 49.4469C40.4673 50.8731 41.2694 52.8069 41.2716 54.8238V62.4312H14.3302V60.1787C14.33 59.8343 14.1931 59.504 13.9496 59.2605C13.706 59.017 13.3758 58.8801 13.0314 58.8799ZM20.6611 32.1426C20.6626 30.8026 21.1956 29.5179 22.1432 28.5704C23.0907 27.6228 24.3754 27.0898 25.7154 27.0883H34.8799C35.1619 27.0883 35.4392 27.1597 35.6861 27.2958C35.9331 27.432 36.1415 27.6284 36.292 27.8669C36.4425 28.1053 36.5301 28.378 36.5468 28.6595C36.5635 28.941 36.5086 29.2221 36.3873 29.4766L36.2893 29.6807C36.029 30.2281 35.619 30.6906 35.1067 31.0146C34.5945 31.3387 34.0009 31.511 33.3948 31.5117H24.9316C24.3756 31.5085 23.8251 31.6217 23.3155 31.8439C22.8059 32.0662 22.3484 32.3927 21.9725 32.8024C21.3768 33.4778 20.9299 34.2711 20.6611 35.1306V32.1426ZM21.6779 37.8203C22.0186 37.6671 22.3204 37.4388 22.5606 37.1526C22.8008 36.8664 22.9732 36.5296 23.065 36.1674C23.2108 35.568 23.4967 35.0118 23.8992 34.5443C24.0316 34.4039 24.1918 34.2928 24.3695 34.2179C24.5473 34.143 24.7387 34.106 24.9316 34.1093H33.397C33.5751 34.1093 33.7488 34.0871 33.9239 34.0715V38.6515C33.9238 39.5426 33.7056 40.4201 33.2886 41.2075C32.8715 41.995 32.2682 42.6684 31.5311 43.1692L31.52 43.1774C30.6201 43.7889 29.5569 44.1153 28.4689 44.114H27.1329C26.0449 44.1153 24.9817 43.7889 24.0818 43.1774L24.0707 43.1692C23.3336 42.6684 22.7303 41.995 22.3132 41.2075C21.8962 40.4201 21.678 39.5426 21.6779 38.6515V37.8203ZM27.8009 49.5246C26.9646 49.5236 26.1629 49.191 25.5716 48.5996C24.9802 48.0083 24.6476 47.2066 24.6466 46.3703V46.3139C25.4492 46.577 26.2883 46.7113 27.1329 46.7117H28.4689C29.3135 46.7113 30.1527 46.577 30.9552 46.3139V46.3703C30.9542 47.2066 30.6216 48.0083 30.0302 48.5996C29.4389 49.191 28.6372 49.5236 27.8009 49.5246Z" fill="#373737"/>
<path d="M38.1172 57.4267C38.4616 57.4265 38.7918 57.2896 39.0354 57.0461C39.2789 56.8025 39.4158 56.4723 39.416 56.1279V54.8201C39.4192 53.5644 39.0074 52.3428 38.2448 51.3452C38.1426 51.2068 38.0139 51.0901 37.8661 51.0019C37.7184 50.9137 37.5547 50.8557 37.3843 50.8313C37.214 50.807 37.0405 50.8167 36.874 50.8599C36.7075 50.9031 36.5512 50.979 36.4142 51.0831C36.2772 51.1872 36.1623 51.3175 36.0761 51.4664C35.9899 51.6154 35.9342 51.7799 35.9121 51.9506C35.8901 52.1212 35.9022 52.2945 35.9476 52.4604C35.9931 52.6264 36.0711 52.7816 36.1771 52.9172C36.5949 53.4634 36.8204 54.1324 36.8184 54.8201V56.1279C36.8186 56.4723 36.9555 56.8025 37.199 57.0461C37.4425 57.2896 37.7728 57.4265 38.1172 57.4267Z" fill="#373737"/>
<path d="M82.7227 4.97852H77.7129C77.3684 4.97852 77.0381 5.11536 76.7945 5.35893C76.5509 5.60251 76.4141 5.93287 76.4141 6.27734C76.4141 6.62181 76.5509 6.95218 76.7945 7.19575C77.0381 7.43933 77.3684 7.57617 77.7129 7.57617H82.7227C83.5589 7.57715 84.3607 7.9098 84.952 8.50113C85.5433 9.09246 85.876 9.8942 85.877 10.7305V27.5536C85.876 28.3899 85.5433 29.1916 84.952 29.783C84.3607 30.3743 83.5589 30.7069 82.7227 30.7079H51.9219C51.6522 30.7079 51.3892 30.7917 51.1693 30.9477L45.7988 34.7625V10.7305C45.7998 9.8942 46.1325 9.09246 46.7238 8.50113C47.3151 7.9098 48.1169 7.57715 48.9531 7.57617H71.3427C71.6872 7.57617 72.0175 7.43933 72.2611 7.19575C72.5047 6.95218 72.6415 6.62181 72.6415 6.27734C72.6415 5.93287 72.5047 5.60251 72.2611 5.35893C72.0175 5.11536 71.6872 4.97852 71.3427 4.97852H55.0762V4.05078C55.075 3.11615 54.7032 2.22014 54.0423 1.55926C53.3814 0.898371 52.4854 0.526569 51.5508 0.525391H4.05078C3.11615 0.526569 2.22014 0.898371 1.55926 1.55926C0.898371 2.22014 0.526569 3.11615 0.525391 4.05078V31.2712C0.525391 31.6157 0.662231 31.9461 0.905809 32.1897C1.14939 32.4332 1.47975 32.5701 1.82422 32.5701C2.16869 32.5701 2.49905 32.4332 2.74263 32.1897C2.98621 31.9461 3.12305 31.6157 3.12305 31.2712V4.05078C3.12344 3.80485 3.22131 3.56911 3.39521 3.39521C3.56911 3.22131 3.80485 3.12344 4.05078 3.12305H51.5508C51.7967 3.12344 52.0325 3.22131 52.2064 3.39521C52.3803 3.56911 52.4781 3.80485 52.4785 4.05078V4.97852H48.9531C47.4282 4.98028 45.9661 5.58686 44.8878 6.66518C43.8095 7.74349 43.2029 9.2055 43.2012 10.7305V37.2793C43.2011 37.5177 43.2666 37.7516 43.3905 37.9553C43.5145 38.159 43.6921 38.3247 43.9039 38.4342C44.1157 38.5438 44.3536 38.5929 44.5915 38.5762C44.8294 38.5596 45.0581 38.4778 45.2526 38.3398L52.333 33.3071H52.4815V76.9707H3.12305V44.5C3.12305 44.1555 2.98621 43.8252 2.74263 43.5816C2.49905 43.338 2.16869 43.2012 1.82422 43.2012C1.47975 43.2012 1.14939 43.338 0.905809 43.5816C0.662231 43.8252 0.525391 44.1555 0.525391 44.5V84.9492C0.526569 85.8839 0.898371 86.7799 1.55926 87.4407C2.22014 88.1016 3.11615 88.4734 4.05078 88.4746H51.5508C52.4854 88.4734 53.3814 88.1016 54.0423 87.4407C54.7032 86.7799 55.075 85.8839 55.0762 84.9492V33.3056H82.7227C84.2476 33.3038 85.7096 32.6972 86.7879 31.6189C87.8663 30.5406 88.4728 29.0786 88.4746 27.5536V10.7305C88.4728 9.2055 87.8663 7.74349 86.7879 6.66518C85.7096 5.58686 84.2476 4.98028 82.7227 4.97852ZM51.5508 85.877H4.05078C3.80485 85.8766 3.56911 85.7787 3.39521 85.6048C3.22131 85.4309 3.12344 85.1952 3.12305 84.9492V79.5684H52.4785V84.9492C52.4781 85.1952 52.3803 85.4309 52.2064 85.6048C52.0325 85.7787 51.7967 85.8766 51.5508 85.877Z" fill="#373737"/>
<path d="M58.3269 23.9191V25.7895C58.3271 26.1339 58.464 26.4641 58.7075 26.7076C58.9511 26.9512 59.2813 27.0881 59.6257 27.0883H72.7031C73.0475 27.0881 73.3777 26.9512 73.6213 26.7076C73.8648 26.4641 74.0017 26.1339 74.0019 25.7895V23.9191C74.0004 22.871 73.685 21.8473 73.0964 20.98C72.5077 20.1127 71.6728 19.4417 70.6992 19.0534C71.1619 18.2569 71.4065 17.3525 71.4083 16.4314C71.4102 15.5103 71.1692 14.605 70.7098 13.8067C70.2503 13.0084 69.5885 12.3453 68.7911 11.8842C67.9937 11.4231 67.0889 11.1803 66.1678 11.1803C65.2466 11.1803 64.3418 11.4231 63.5444 11.8842C62.747 12.3453 62.0852 13.0084 61.6258 13.8067C61.1663 14.605 60.9253 15.5103 60.9272 16.4314C60.929 17.3525 61.1736 18.2569 61.6363 19.0534C60.6613 19.4404 59.8248 20.1109 59.2348 20.9783C58.6449 21.8457 58.3286 22.8701 58.3269 23.9191ZM66.1644 13.792C66.6872 13.7918 67.1983 13.9467 67.633 14.2371C68.0678 14.5274 68.4066 14.9402 68.6068 15.4232C68.8069 15.9061 68.8593 16.4376 68.7573 16.9503C68.6554 17.4631 68.4037 17.9341 68.034 18.3038C67.6643 18.6734 67.1933 18.9251 66.6806 19.0271C66.1678 19.1291 65.6364 19.0767 65.1534 18.8765C64.6704 18.6764 64.2577 18.3375 63.9673 17.9028C63.677 17.468 63.5221 16.957 63.5222 16.4342C63.523 15.7337 63.8016 15.0621 64.297 14.5667C64.7923 14.0714 65.4639 13.7928 66.1644 13.792ZM60.9246 23.9191C60.9253 23.2186 61.204 22.547 61.6993 22.0517C62.1946 21.5564 62.8662 21.2777 63.5668 21.277H64.1679C64.8009 21.5396 65.4795 21.6747 66.1648 21.6747C66.8501 21.6747 67.5287 21.5396 68.1616 21.277H68.7621C69.4626 21.2777 70.1342 21.5564 70.6295 22.0517C71.1249 22.547 71.4035 23.2186 71.4043 23.9191V24.4906H60.9246V23.9191Z" fill="#373737"/>
</svg>
