<?xml version="1.0" encoding="UTF-8"?>
<svg width="24px" height="24px" viewBox="0 0 24 24" version="1.1" xmlns="http://www.w3.org/2000/svg" xmlns:xlink="http://www.w3.org/1999/xlink">
    <title>1533688F-E3B9-46CF-B0FC-9C1DB31EF4A3</title>
    <g id="Static-Pages" stroke="none" stroke-width="1" fill="none" fill-rule="evenodd">
        <g id="Sub-Menu-my-profile" transform="translate(-286.000000, -272.000000)">
            <g id="logout_black_24dp" transform="translate(286.000000, 272.000000)">
                <polygon id="Path" points="0 0 24 0 24 24 0 24"></polygon>
                <path d="M17,7 L15.59,8.41 L18.17,11 L8,11 L8,13 L18.17,13 L15.59,15.58 L17,17 L22,12 L17,7 Z M4,5 L12,5 L12,3 L4,3 C2.9,3 2,3.9 2,5 L2,19 C2,20.1 2.9,21 4,21 L12,21 L12,19 L4,19 L4,5 Z" id="Shape" fill="#00CDFF" fill-rule="nonzero"></path>
            </g>
        </g>
    </g>
</svg>