<svg width="328" height="215" viewBox="0 0 328 215" fill="none" xmlns="http://www.w3.org/2000/svg">
<path fill-rule="evenodd" clip-rule="evenodd" d="M164.341 48.4836C134.307 49.9206 113.299 49.016 90.4092 39.0214C53.2257 22.785 45.9978 -6.46071 7.45572 1.27915C-45.8911 11.9918 -36.6364 81.7073 -80.4985 115.076C-135.18 156.674 -171.581 121.166 -217.725 158.258C-264.346 195.733 -251.379 283.043 -226.954 334.809C-197.771 396.661 -133.198 448.107 -60.8293 457.037C15.7511 466.487 29.1045 419.449 121.908 414.597C241.061 408.368 273.688 483.052 363.712 463.827C447.254 445.988 516.302 360.928 502.15 307.648C492.826 272.546 453.957 274.104 432.008 226.162C408.575 174.979 443.436 153.134 422.373 106.781C399.668 56.8127 329.1 16.0537 269.742 21.1863C230.601 24.5703 221.096 45.7689 164.341 48.4836Z" fill="#0079AB"/>
<path fill-rule="evenodd" clip-rule="evenodd" d="M152.77 229.197L32.0615 257.981C29.744 258.535 27.4158 257.109 26.8629 254.794L8.42431 177.664C8.39586 177.541 8.47051 177.42 8.59276 177.39L137.226 146.716C137.349 146.687 137.472 146.762 137.5 146.884L155.945 224.045C156.494 226.341 155.072 228.648 152.77 229.197Z" fill="#FBB03B"/>
<mask id="mask0" style="mask-type:alpha" maskUnits="userSpaceOnUse" x="5" y="144" width="155" height="117">
<path fill-rule="evenodd" clip-rule="evenodd" d="M5.97809 161.893L147.284 144.543L159.355 242.855L18.0492 260.205L5.97809 161.893Z" fill="white"/>
</mask>
<g mask="url(#mask0)">
<path fill-rule="evenodd" clip-rule="evenodd" d="M9.15736 177.579L27.5517 254.505C28.0267 256.496 30.0334 257.739 32.0379 257.254L153.059 228.402L153.198 228.986L153.059 228.402C154.019 228.172 154.833 227.585 155.35 226.746C155.867 225.908 156.026 224.918 155.797 223.962L137.397 147.006L9.15736 177.579ZM31.7707 258.52C29.3154 258.821 26.9659 257.237 26.3794 254.783L7.89832 177.496C7.7928 177.052 8.0691 176.604 8.51347 176.498L137.48 145.752C137.932 145.645 138.375 145.92 138.48 146.364L156.969 223.682C157.272 224.951 157.061 226.262 156.376 227.375C155.69 228.486 154.611 229.266 153.339 229.57L32.317 258.423C32.1342 258.466 31.9524 258.498 31.7707 258.52Z" fill="#0079AB"/>
</g>
<path fill-rule="evenodd" clip-rule="evenodd" d="M147.384 229.882L38.1025 257.266C35.7776 257.821 66.7635 206.406 66.2101 204.093L8.42503 177.669C8.39534 177.545 8.47142 177.424 8.5928 177.394L137.575 146.673C137.698 146.644 137.82 146.719 137.85 146.841L98.5205 196.397C99.0695 198.694 149.693 229.331 147.384 229.882Z" fill="#F0F8FC" fill-opacity="0.7"/>
<path fill-rule="evenodd" clip-rule="evenodd" d="M8.59349 177.19L56.1527 117.449C58.9882 113.878 63.9155 112.697 68.0692 114.596L137.215 146.34C137.333 146.394 137.315 146.565 137.188 146.596L8.37181 177.243" fill="#F3E2C2"/>
<path fill-rule="evenodd" clip-rule="evenodd" d="M71.5386 194.943L37.9046 256.277L147.071 230.228L89.3418 190.695C83.319 186.57 75.0467 188.545 71.5386 194.943Z" fill="#F7A9B4"/>
<path fill-rule="evenodd" clip-rule="evenodd" d="M81.3583 189.271C80.9253 189.324 80.4929 189.401 80.0647 189.504C76.8338 190.274 74.0663 192.384 72.47 195.293L39.3868 255.599L146.237 230.108L89.4565 191.24C87.0812 189.614 84.1906 188.923 81.3583 189.271ZM37.0255 257.399L71.4131 194.715L71.9416 195.004L71.4131 194.715C73.1722 191.51 76.224 189.182 79.785 188.333C83.3462 187.485 87.1192 188.183 90.1384 190.248L149.157 230.649L37.0255 257.399Z" fill="#0079AB"/>
<path fill-rule="evenodd" clip-rule="evenodd" d="M10.6799 138.073L95.0417 117.993C100.572 116.677 105.981 119.476 107.122 124.245L118.575 172.061L97.4558 196.708L66.4544 204.088L33.0377 188.602L21.9432 142.276L10.6799 138.073Z" fill="white"/>
<path fill-rule="evenodd" clip-rule="evenodd" d="M33.6184 187.985L66.5145 203.337L97.0415 196.049L117.767 171.714L106.379 124.023C105.868 121.879 104.419 120.091 102.298 118.986C100.149 117.867 97.5756 117.585 95.0474 118.186L12.8107 137.818L22.5097 141.464L33.6184 187.985ZM66.3866 204.603L32.5845 188.829L21.4889 142.365L12.5385 136.646L94.7669 117.017C97.5763 116.347 100.448 116.667 102.854 117.92C105.288 119.188 106.956 121.257 107.549 123.744L119.079 172.027L97.702 197.127L66.3866 204.603Z" fill="#0079AB"/>
<path fill-rule="evenodd" clip-rule="evenodd" d="M70.9263 189.957L37.9045 256.277L147.068 230.204L88.7291 185.706C82.7052 181.572 74.4329 183.547 70.9263 189.957Z" fill="#0079AB"/>
<path fill-rule="evenodd" clip-rule="evenodd" d="M71.5386 194.943L37.9046 256.277L147.071 230.228L89.3418 190.695C83.319 186.57 75.0467 188.545 71.5386 194.943Z" fill="#FBB03B"/>
<path fill-rule="evenodd" clip-rule="evenodd" d="M81.3583 189.271C80.9253 189.324 80.4929 189.401 80.0647 189.504C76.8338 190.274 74.0663 192.384 72.47 195.293L39.3868 255.599L146.237 230.108L89.4565 191.24C87.0812 189.614 84.1906 188.923 81.3583 189.271ZM37.0255 257.399L71.4131 194.715L71.9416 195.004L71.4131 194.715C73.1722 191.51 76.224 189.182 79.785 188.333C83.3462 187.485 87.1192 188.183 90.1384 190.248L149.157 230.649L37.0255 257.399Z" fill="#0079AB"/>
<path fill-rule="evenodd" clip-rule="evenodd" d="M77.2883 207.049L52.6244 251.934L132.649 232.855L90.3385 203.937C85.9253 200.921 79.8609 202.366 77.2883 207.049Z" fill="#F7931E"/>
<path fill-rule="evenodd" clip-rule="evenodd" d="M8.93341 177.681L66.577 204.073L8.93341 177.681Z" fill="#F7A9B4"/>
<path fill-rule="evenodd" clip-rule="evenodd" d="M66.0062 204.65L8.49464 178.248L9.00341 177.165L66.5149 203.567L66.0062 204.65Z" fill="#0079AB"/>
<path fill-rule="evenodd" clip-rule="evenodd" d="M137.825 146.641L98.7053 196.578L137.825 146.641Z" fill="#F7A9B4"/>
<path fill-rule="evenodd" clip-rule="evenodd" d="M99.0463 196.536L98.101 195.797L137.421 146.184L138.368 146.923L99.0463 196.536Z" fill="#0079AB"/>
<path fill-rule="evenodd" clip-rule="evenodd" d="M26.976 163.13L12.1167 166.64L7.11314 145.91C6.18814 142.079 8.61418 138.225 12.5322 137.3L13.2072 137.139C17.124 136.215 21.0488 138.569 21.9725 142.399L26.976 163.13Z" fill="#ECF1F7"/>
<path fill-rule="evenodd" clip-rule="evenodd" d="M14.0908 137.686C13.8433 137.716 13.5964 137.761 13.351 137.819L12.6845 137.978C10.9736 138.387 9.52378 139.436 8.60289 140.938C7.68291 142.436 7.40031 144.207 7.8099 145.92L12.6605 166.252L26.1376 163.032L21.2859 142.701C20.8775 140.988 19.8272 139.536 18.3273 138.614C17.0443 137.825 15.564 137.505 14.0908 137.686ZM11.7726 167.697L6.6434 146.198C6.16054 144.173 6.49317 142.082 7.58235 140.308C8.67034 138.535 10.384 137.293 12.4058 136.809L13.0724 136.651C15.0974 136.174 17.1838 136.502 18.9556 137.593C20.7273 138.682 21.9695 140.398 22.4525 142.423L27.5813 163.919L11.7726 167.697Z" fill="#0079AB"/>
<path fill-rule="evenodd" clip-rule="evenodd" d="M35.2599 151.121C34.9599 151.158 34.6735 150.97 34.6021 150.675C34.5268 150.357 34.7268 150.04 35.0498 149.963L96.1286 135.537C96.455 135.458 96.7752 135.655 96.8529 135.972C96.9282 136.289 96.7282 136.606 96.4052 136.683L35.3276 151.109C35.3051 151.114 35.2826 151.118 35.2599 151.121Z" fill="#0079AB"/>
<path fill-rule="evenodd" clip-rule="evenodd" d="M40.3407 171.796C40.0407 171.833 39.7544 171.645 39.683 171.35C39.6077 171.033 39.8076 170.715 40.1307 170.638L101.209 156.212C101.53 156.134 101.857 156.33 101.934 156.647C102.01 156.964 101.81 157.282 101.486 157.358L40.4084 171.784C40.386 171.789 40.3634 171.793 40.3407 171.796Z" fill="#0079AB"/>
<path fill-rule="evenodd" clip-rule="evenodd" d="M38.0528 161.427C37.7518 161.464 37.4653 161.283 37.3949 160.997C37.3206 160.689 37.5225 160.38 37.8468 160.304L64.3454 154.145C64.6689 154.073 64.9959 154.258 65.0702 154.565C65.1456 154.871 64.9437 155.181 64.6183 155.257L38.1208 161.415C38.0983 161.421 38.0756 161.424 38.0528 161.427Z" fill="#0079AB"/>
<path fill-rule="evenodd" clip-rule="evenodd" d="M71.1848 153.809C70.8828 153.846 70.5933 153.647 70.5197 153.336C70.442 153.002 70.6417 152.669 70.9668 152.59L98.9135 145.844C99.2416 145.77 99.5668 145.971 99.6469 146.305C99.7244 146.638 99.5246 146.971 99.1998 147.051L71.253 153.797C71.2304 153.802 71.2077 153.806 71.1848 153.809Z" fill="#0079AB"/>
<path fill-rule="evenodd" clip-rule="evenodd" d="M43.3177 183.601C43.0166 183.638 42.7302 183.457 42.6597 183.171C42.5854 182.863 42.7873 182.554 43.1116 182.478L69.6102 176.319C69.9327 176.248 70.2595 176.431 70.335 176.739C70.4104 177.045 70.2085 177.354 69.8832 177.431L43.3856 183.589C43.3631 183.595 43.3405 183.598 43.3177 183.601Z" fill="#0079AB"/>
<path fill-rule="evenodd" clip-rule="evenodd" d="M206.375 128.821L170.683 237.979C163.703 259.331 140.711 271.046 119.333 264.143L106.267 259.924C101.333 258.331 98.6394 253.045 100.251 248.118L114.816 203.575C116.426 198.648 121.732 195.944 126.666 197.537L148.965 204.736C150.708 205.3 152.584 204.344 153.154 202.601L170.816 148.585C171.378 146.866 170.438 145.021 168.717 144.465L146.728 137.366C141.795 135.772 139.102 130.487 140.712 125.56L155.671 79.8105C157.262 74.9443 162.465 72.2354 167.367 73.7238L179.632 77.4493C201.393 84.0579 213.443 107.205 206.375 128.821Z" fill="#D9EBF2"/>
<path fill-rule="evenodd" clip-rule="evenodd" d="M178.84 79.6487L158.71 140.899L156.605 140.223L146.943 137.121C142.011 135.536 139.325 130.264 140.942 125.343L155.957 79.6575C157.554 74.7981 162.76 72.0876 167.658 73.5667L179.92 77.2698L178.84 79.6487Z" fill="#F0F8FC"/>
<path fill-rule="evenodd" clip-rule="evenodd" d="M178.544 78.0434L177.775 79.7529L157.896 140.388L146.809 136.817C144.604 136.109 142.814 134.583 141.766 132.527C140.718 130.47 140.537 128.125 141.259 125.926L156.252 80.1894C157.715 75.724 162.563 73.2024 167.058 74.5643L178.544 78.0434ZM158.818 142.198L179.134 80.2311L180.534 77.1409L167.482 73.1888C162.241 71.6026 156.587 74.543 154.881 79.7479L139.888 125.484C138.151 130.779 141.055 136.479 146.36 138.186L158.818 142.198Z" fill="#0079AB"/>
<path fill-rule="evenodd" clip-rule="evenodd" d="M137.177 203.177L117.045 264.428L114.941 263.752L105.28 260.649C100.348 259.065 97.661 253.792 99.2791 248.872L114.294 203.186C115.891 198.327 121.097 195.616 125.995 197.095L138.257 200.798L137.177 203.177Z" fill="#F0F8FC"/>
<path fill-rule="evenodd" clip-rule="evenodd" d="M137.42 201.297L136.651 203.006L116.776 263.64L105.687 260.07C103.484 259.359 101.694 257.835 100.646 255.779C99.598 253.722 99.4167 251.377 100.138 249.178L115.13 203.442C116.594 198.979 121.44 196.455 125.935 197.817L137.42 201.297ZM117.699 265.45L138.01 203.485L139.41 200.395L126.359 196.442C121.117 194.856 115.465 197.797 113.759 203.001L98.7666 248.737C97.9258 251.302 98.137 254.035 99.3594 256.434C100.582 258.833 102.669 260.611 105.239 261.439L117.699 265.45Z" fill="#0079AB"/>
<path fill-rule="evenodd" clip-rule="evenodd" d="M161.048 114.641C161.211 114.557 161.342 114.412 161.404 114.225L173.506 77.1403C173.628 76.7656 173.423 76.3637 173.048 76.2412C172.673 76.1199 172.269 76.3258 172.146 76.7005L160.043 113.784C159.921 114.16 160.126 114.562 160.502 114.685C160.689 114.745 160.884 114.724 161.048 114.641Z" fill="#0079AB"/>
<path fill-rule="evenodd" clip-rule="evenodd" d="M307.808 154.112C326.823 187.048 315.576 229.14 282.687 248.129C249.798 267.117 207.721 255.811 188.706 222.876C169.69 189.94 180.937 147.847 213.826 128.859C246.715 109.87 288.792 121.177 307.808 154.112Z" fill="#9BC570"/>
<path fill-rule="evenodd" clip-rule="evenodd" d="M313.825 207.252C313.679 207.336 313.501 207.364 313.326 207.319C312.975 207.224 312.768 206.865 312.862 206.515C317.59 188.965 315.195 170.641 306.119 154.921C297.043 139.202 282.372 127.966 264.809 123.286C247.247 118.603 228.895 121.037 213.135 130.136C197.374 139.235 186.091 153.912 181.365 171.462C181.269 171.813 180.91 172.02 180.56 171.927C180.208 171.833 180.001 171.474 180.096 171.124C184.914 153.235 196.415 138.275 212.479 129.001C228.544 119.726 247.25 117.245 265.152 122.017C283.052 126.789 298.007 138.241 307.258 154.264C316.508 170.287 318.949 188.964 314.132 206.853C314.084 207.028 313.97 207.168 313.825 207.252Z" fill="#0079AB"/>
<path fill-rule="evenodd" clip-rule="evenodd" d="M293.458 162.397C307.91 187.428 299.28 219.466 274.185 233.954C249.089 248.444 217.029 239.898 202.577 214.867C188.125 189.836 196.755 157.798 221.851 143.309C246.946 128.82 279.006 137.366 293.458 162.397Z" fill="white"/>
<path fill-rule="evenodd" clip-rule="evenodd" d="M274.37 234.484C249.1 249.073 216.679 240.398 202.099 215.143C187.519 189.89 196.215 157.474 221.485 142.884C221.799 142.703 222.2 142.81 222.381 143.124C222.563 143.439 222.455 143.839 222.141 144.02C197.497 158.248 189.017 189.859 203.235 214.487C217.454 239.114 249.071 247.576 273.714 233.348C274.028 233.167 274.429 233.274 274.61 233.588C274.791 233.901 274.684 234.302 274.37 234.484Z" fill="#0079AB"/>
<path fill-rule="evenodd" clip-rule="evenodd" d="M264.749 190.422L252.333 197.59C249.786 199.061 246.521 198.191 245.056 195.653L235.149 178.494C233.874 176.285 234.636 173.458 236.851 172.179C239.067 170.9 241.897 171.653 243.172 173.862L251.119 187.628L260.131 182.425C262.347 181.146 265.176 181.899 266.451 184.107C267.726 186.316 266.964 189.143 264.749 190.422Z" fill="#0079AB"/>
</svg>
