<?xml version="1.0" encoding="UTF-8"?>
<svg width="109px" height="88px" viewBox="0 0 109 88" version="1.1" xmlns="http://www.w3.org/2000/svg" xmlns:xlink="http://www.w3.org/1999/xlink">
    <title>C3ACE73C-6638-4E6C-8F96-2F0E629547D0</title>
    <g id="Static-Pages" stroke="none" stroke-width="1" fill="none" fill-rule="evenodd">
        <g id="Webteb-Pro-features" transform="translate(-136.000000, -1988.000000)">
            <g id="Group-13" transform="translate(136.000000, 1988.000000)">
                <rect id="Combined-Shape-Copy-2" fill="#F1F8FC" x="44" y="17" width="65" height="65" rx="32.5"></rect>
                <g id="internet-(1)" transform="translate(0.000000, 0.000000)" fill-rule="nonzero">
                    <circle id="Oval" fill="#00C3FB" cx="44" cy="44" r="37.9310938"></circle>
                    <g id="Group" transform="translate(6.068777, 7.540672)">
                        <path d="M26.9918947,12.0166406 C25.3076915,14.8235313 26.7036603,18.1917656 27.8567697,21.1808438 C28.3735978,22.1483281 28.5090353,23.2742813 28.2360978,24.3366406 C27.8014259,25.1875938 27.1397072,25.9017344 26.3243322,26.4001719 C24.1092072,28.114625 21.8889259,29.8139531 19.6636603,31.4981563 C18.0160665,32.5995312 16.6199259,34.0370937 15.5671915,35.7161406 C13.8071915,39.0996719 15.6127384,43.0899219 14.8540822,46.7465625 C14.4140822,48.8100938 9.36164465,54.863875 6.7976134,58.1107656 C-0.195808474,48.0653594 -1.9088866,35.2620469 2.19737903,23.7318125 C6.30364465,12.2015781 15.7242853,3.36342188 27.4925665,1.22124533e-15 L27.5076915,0.045546875 C30.4225197,2.14242188 31.194754,6.14951563 29.2676915,9.17932813 C28.4579884,10.082875 27.6983009,11.0300781 26.9918947,12.0166406 Z" id="Path" fill="#0B6A34"></path>
                        <path d="M75.8623735,36.4593281 C75.867129,39.2100156 75.5668634,41.9527969 74.9671915,44.6373125 L74.9520665,44.6373125 C73.3230353,45.0150938 71.6123634,44.5732031 70.3700509,43.4539531 C68.3824884,41.8152969 66.7438322,39.3877344 63.8155978,39.7670625 C62.150129,40.051 60.695379,41.056125 59.8404728,42.5132813 C57.3673634,46.5037031 58.6418165,51.5863906 56.5631603,55.6070625 C55.3519572,57.6080313 53.7526603,59.346375 51.859629,60.7201719 C51.844504,60.7352969 51.8140822,60.7505938 51.7989572,60.7808438 C50.6858947,61.6694375 49.1434884,61.7895781 47.9063322,61.0840313 C46.6691759,60.3784844 45.9871759,58.9899063 46.1851759,57.5795 C46.6315353,53.9972813 45.6985978,50.3791406 43.5755978,47.4595 C41.8762697,45.1684063 39.3424884,43.074625 39.357546,40.2374844 C39.4031603,36.3988281 44.0458478,34.0774844 47.0955978,32.7574844 C48.7614103,32.0723906 50.1757697,30.8910938 51.1466915,29.3739531 C53.8777853,24.8070625 49.6446759,21.2415156 47.5053478,17.4028594 C44.5441134,11.79475 45.8252697,4.88657813 50.6004728,0.71328125 C65.7459259,6.07028125 75.8686759,20.3941719 75.8623735,36.4593281 Z" id="Path" fill="#0B6A34"></path>
                        <path d="M50.600129,0.713109375 L50.615254,0.697984375 C50.6456759,0.682859375 50.6759259,0.6524375 50.7063478,0.6373125" id="Path" fill="#4FBA6F"></path>
                        <path d="M41.1478634,74.2386563 C40.0858478,74.344875 39.0085353,74.390464 37.9312228,74.390464 C29.2953634,74.4033125 20.9154259,71.4584062 14.1863478,66.0455469 L20.209879,61.615125 C21.0713165,60.9797031 22.1312697,60.6730781 23.1987853,60.75025 C25.4745822,61.0082344 27.0221447,63.3295781 29.2070197,63.9971406 C30.9214728,64.5282344 32.7421447,63.9820156 34.5174415,64.0578125 C34.874254,64.068125 35.2252228,64.150625 35.5492072,64.3005 C35.8833322,64.4899063 36.1731134,64.7485781 36.3987853,65.0591563 C38.5229884,67.7904219 38.9781134,71.5682344 41.1478634,74.2386563 Z" id="Path" fill="#0B6A34"></path>
                    </g>
                    <circle id="Oval" fill="#0085B2" cx="74.344875" cy="18.2068906" r="13.655125"></circle>
                    <path d="M81.9310938,25.5475 C81.9400313,27.3148906 81.3639062,29.0355313 80.2924375,30.4412969 C76.5536406,32.3357031 72.1361094,32.3357031 68.3973125,30.4412969 C66.9119687,28.4820938 66.4011562,25.9524375 67.0097656,23.5704219 C67.618375,21.1884063 69.2798906,19.2137344 71.5228594,18.2068906 L71.5379844,18.2068906 C73.1591094,19.5751875 75.5306406,19.5751875 77.1517656,18.2068906 L77.1668906,18.2068906 C80.08,19.481 81.9537812,22.3681563 81.9310938,25.5475 Z" id="Path" fill="#E6E7E8"></path>
                    <path d="M78.8966406,15.1724375 C78.9067813,16.5654844 78.2672344,17.8835938 77.1670625,18.7379844 L77.1519375,18.7379844 C75.5117344,20.053 73.1783594,20.053 71.5381563,18.7379844 L71.5230313,18.7379844 C70.4226875,17.8835938 69.7833125,16.5654844 69.7934531,15.1724375 C69.7934531,12.6585937 71.831375,10.6206719 74.3452188,10.6206719 C76.8590625,10.6206719 78.8966406,12.6585938 78.8966406,15.1724375 Z" id="Path" fill="#FFFFFF"></path>
                    <g id="Group-6" transform="translate(-0.000000, 0.000000)">
                        <circle id="Oval" fill="#F7B500" cx="13.655125" cy="13.655125" r="13.655125"></circle>
                        <path d="M21.2413438,20.9959062 C21.2502813,22.7632969 20.6741563,24.4839375 19.6026875,25.8897031 C15.8638906,27.7841094 11.4463594,27.7841094 7.7075625,25.8897031 C6.22221875,23.9305 5.71140625,21.4008437 6.32001563,19.0188281 C6.928625,16.6368125 8.59014063,14.6621406 10.8331094,13.6552969 L10.8482344,13.6552969 C12.4693594,15.0235937 14.8408906,15.0235937 16.4620156,13.6552969 L16.4771406,13.6552969 C19.39025,14.9292344 21.2640313,17.8163906 21.2413438,20.9959062 Z" id="Path" fill="#E6E7E8"></path>
                        <path d="M18.2068906,10.6206719 C18.2170312,12.0137187 17.5774844,13.3318281 16.4773125,14.1862187 L16.4621875,14.1862187 C14.8219844,15.5012344 12.4886094,15.5012344 10.8484062,14.1862187 L10.8332812,14.1862187 C9.7329375,13.3318281 9.0935625,12.0137187 9.10370312,10.6206719 C9.10370312,8.10682812 11.141625,6.06890625 13.6554687,6.06890625 C16.1693125,6.06890625 18.2068906,8.10682812 18.2068906,10.6206719 Z" id="Path" fill="#FFFFFF"></path>
                    </g>
                    <circle id="Oval" fill="#9BC570" cx="13.655125" cy="74.344875" r="13.655125"></circle>
                    <path d="M21.2413438,81.6854844 C21.2502813,83.452875 20.6741563,85.1735156 19.6026875,86.5791094 C15.8638906,88.4735156 11.4463594,88.4735156 7.7075625,86.5791094 C6.22221875,84.6199063 5.71140625,82.09025 6.32001562,79.7082344 C6.928625,77.3262188 8.59014063,75.3515469 10.8331094,74.3447031 L10.8482344,74.3447031 C12.4693594,75.713 14.8408906,75.713 16.4620156,74.3447031 L16.4771406,74.3447031 C19.39025,75.6189844 21.2640313,78.5061406 21.2413438,81.6854844 Z" id="Path" fill="#E6E7E8"></path>
                    <path d="M18.2068906,71.3104219 C18.2170312,72.7034687 17.5774844,74.0215781 16.4773125,74.8759687 L16.4621875,74.8759687 C14.8219844,76.1909844 12.4886094,76.1909844 10.8484062,74.8759687 L10.8332812,74.8759687 C9.7329375,74.0215781 9.0935625,72.7034687 9.10370312,71.3104219 C9.10370312,68.7965781 11.141625,66.7586563 13.6554687,66.7586563 C16.1693125,66.7586563 18.2068906,68.7965781 18.2068906,71.3104219 Z" id="Path" fill="#FFFFFF"></path>
                </g>
            </g>
        </g>
    </g>
</svg>