<?xml version="1.0" encoding="UTF-8"?>
<svg width="16px" height="16px" viewBox="0 0 16 16" version="1.1" xmlns="http://www.w3.org/2000/svg" xmlns:xlink="http://www.w3.org/1999/xlink">
    <title>30D23FF5-663D-4C30-9829-987595C0E5CE</title>
    <g id="UI" stroke="none" stroke-width="1" fill="none" fill-rule="evenodd">
        <g id="Home-page" transform="translate(-321.000000, -222.000000)" fill="#0079AB" fill-rule="nonzero">
            <path d="M330.005252,222 C326.144099,222.00468 323.015184,225.133615 323.010503,228.994792 C323.015417,230.501202 323.511203,231.964962 324.422743,233.164287 L321.305084,236.281966 C321.045322,236.532854 320.941145,236.904381 321.032591,237.25375 C321.124038,237.603119 321.396878,237.875961 321.746245,237.967408 C322.095613,238.058856 322.467137,237.954677 322.718023,237.694914 L325.835682,234.577235 C327.035015,235.488837 328.498805,235.984664 330.005252,235.989584 C333.868345,235.989584 337,232.857909 337,228.994792 C337,225.131675 333.868345,222 330.005252,222 Z M330.005252,233.991072 C327.2459,233.991072 325.009003,231.754161 325.009003,228.994792 C325.009003,226.235423 327.2459,223.998512 330.005252,223.998512 C332.764604,223.998512 335.0015,226.235423 335.0015,228.994792 C334.998252,231.752814 332.763257,233.987823 330.005252,233.991072 Z" id="Shape" transform="translate(329.000000, 230.000000) scale(-1, 1) translate(-329.000000, -230.000000) "></path>
        </g>
    </g>
</svg>