<svg width="64" height="20" viewBox="0 0 64 20" fill="none" xmlns="http://www.w3.org/2000/svg">
<rect x="19" y="10" width="39" height="1" fill="#00C3FB"/>
<circle cx="52" cy="10" r="8" fill="#6ABD43"/>
<path d="M56.222 8.41468L52.5917 11.8654L51.8072 12.6109C51.6219 12.7871 51.3788 12.875 51.136 12.875C50.893 12.875 50.6502 12.7871 50.4646 12.6109L48.778 11.0073C48.4073 10.655 48.4073 10.0845 48.778 9.73197C49.1481 9.37972 49.7492 9.37972 50.1199 9.73197L51.136 10.6977L54.8801 7.13936C55.2508 6.78688 55.8519 6.78688 56.222 7.13936C56.5927 7.49161 56.5927 8.0629 56.222 8.41468Z" fill="white"/>
<circle cx="12" cy="10" r="7.5" fill="white" stroke="#00C3FB" stroke-dasharray="2"/>
<path d="M14.4854 12H9.6123V11.0332L11.9121 8.58203C12.2279 8.23698 12.4606 7.93587 12.6104 7.67871C12.7633 7.42155 12.8398 7.17741 12.8398 6.94629C12.8398 6.63053 12.7601 6.38314 12.6006 6.2041C12.4411 6.02181 12.2132 5.93066 11.917 5.93066C11.598 5.93066 11.3457 6.04134 11.1602 6.2627C10.9779 6.48079 10.8867 6.76888 10.8867 7.12695H9.4707C9.4707 6.69401 9.57324 6.2985 9.77832 5.94043C9.98665 5.58236 10.2796 5.30241 10.6572 5.10059C11.0348 4.89551 11.4629 4.79297 11.9414 4.79297C12.6738 4.79297 13.2419 4.96875 13.6455 5.32031C14.0524 5.67188 14.2559 6.16829 14.2559 6.80957C14.2559 7.16113 14.1647 7.51921 13.9824 7.88379C13.8001 8.24837 13.4876 8.67318 13.0449 9.1582L11.4287 10.8623H14.4854V12Z" fill="black"/>
</svg>
