<?xml version="1.0" encoding="UTF-8"?>
<svg width="24px" height="24px" viewBox="0 0 24 24" version="1.1" xmlns="http://www.w3.org/2000/svg" xmlns:xlink="http://www.w3.org/1999/xlink">
    <title>2C75E2A6-38F9-42FB-B62F-C537B519FD4B@2x</title>
    <g id="Page-1" stroke="none" stroke-width="1" fill="none" fill-rule="evenodd">
        <g id="Icons" transform="translate(-866.000000, -253.000000)">
            <g id="verified-icon" transform="translate(866.000000, 253.000000)">
                <rect id="Rectangle" x="0" y="0" width="24" height="24"></rect>
                <path d="M12,22 C6.4771525,22 2,17.5228475 2,12 C2,6.4771525 6.4771525,2 12,2 C17.5228475,2 22,6.4771525 22,12 C22,17.5228475 17.5228475,22 12,22 Z M14.6592972,9.23518898 C14.9792838,8.89367932 15.4978875,8.89388976 15.817631,9.23565901 C16.1373745,9.57742826 16.1371775,10.1313353 15.8171909,10.4728449 L10.9083537,15.7118629 C10.5919251,16.0495754 10.0803425,16.0536708 9.75920986,15.7210623 L7.25244173,13.1247134 C6.9276983,12.7883651 6.91972765,12.2345235 7.23463878,11.8876736 C7.54954991,11.5408236 8.06809238,11.5323104 8.39283581,11.8686587 L10.3207928,13.8655123 L14.6592972,9.23518898 Z" id="Fill" fill="#6ABD43"></path>
            </g>
        </g>
    </g>
</svg>