<svg width="100" height="100" viewBox="0 0 100 100" fill="none" xmlns="http://www.w3.org/2000/svg">
<path fill-rule="evenodd" clip-rule="evenodd" d="M18.6249 87.5H81.3749C87.7916 87.5 91.7916 80.5417 88.5833 75L57.2083 20.7917C53.9999 15.25 45.9999 15.25 42.7916 20.7917L11.4166 75C8.20827 80.5417 12.2083 87.5 18.6249 87.5ZM49.9999 58.3333C47.7083 58.3333 45.8333 56.4583 45.8333 54.1667V45.8333C45.8333 43.5417 47.7083 41.6667 49.9999 41.6667C52.2916 41.6667 54.1666 43.5417 54.1666 45.8333V54.1667C54.1666 56.4583 52.2916 58.3333 49.9999 58.3333ZM54.1666 75H45.8333V66.6667H54.1666V75Z" fill="#D75520"/>
</svg>
