<?xml version="1.0" encoding="UTF-8"?>
<svg width="25px" height="25px" viewBox="0 0 25 25" version="1.1" xmlns="http://www.w3.org/2000/svg" xmlns:xlink="http://www.w3.org/1999/xlink">
    <title>B8CB96B8-E5B5-4666-ABEE-8DC6E2BAA5D2</title>
    <g id="Doctor-profile-(Doctor-view)" stroke="none" stroke-width="1" fill="none" fill-rule="evenodd">
        <g id="Doctor-Profile-Main" transform="translate(-925.000000, -484.000000)" fill-rule="nonzero">
            <g id="Group-2" transform="translate(39.000000, 248.000000)">
                <g id="whatsapp-(1)-copy-2" transform="translate(887.500000, 237.000000)">
                    <path d="M11.04125,-0.5 C14.1007685,-0.5 16.9740214,0.691382437 19.1641446,2.8086221 C20.8806998,4.53093215 21.8910709,6.5512911 22.2968215,8.62604426 C22.7371669,10.8776938 22.4642742,13.1948381 21.601532,15.2674976 C20.7405924,17.3358264 19.2926362,19.159861 17.3845512,20.4334198 C15.6295183,21.6048234 13.4849433,22.3120833 11.04675,22.3120833 C9.68238245,22.2298201 7.8747816,22.1231698 5.74506299,21.018561 L5.74506299,21.018561 L-0.711909458,22.7023682 L1.0176789,16.4183332 C0.0288545285,14.6400865 -0.420877667,12.7603757 -0.417851582,10.926001 C-0.414507136,8.89863929 0.14256727,6.92611658 1.14015348,5.20663229 C3.07026712,1.87980196 6.64714826,-0.5 11.04125,-0.5 Z" id="Path" stroke="#FFFFFF" fill="#ECEFF1"></path>
                    <path d="M11.0614167,19.9384167 L11.0559167,19.9375 L11.04125,19.9375 C8.12441667,19.9375 6.26083333,18.5560833 6.0775,18.4763333 L2.64,19.3700833 L3.56125,16.0288333 L3.34216667,15.6850833 C2.43466667,14.2404167 1.9525,12.5766667 1.9525,10.8634167 C1.9525,2.80316667 11.8020833,-1.22741667 17.5019167,4.46966667 C23.188,10.1071667 19.1959167,19.9384167 11.0614167,19.9384167 Z" id="Path" fill="#4CAF50"></path>
                    <path d="M16.0480833,13.11475 L16.0398333,13.1835 C15.7639167,13.046 14.4200833,12.38875 14.1698333,12.298 C13.6079167,12.0899167 13.7665,12.265 12.6875833,13.5006667 C12.5271667,13.6794167 12.3676667,13.6931667 12.0954167,13.5694167 C11.8204167,13.4319167 10.9376667,13.1431667 9.89266667,12.2081667 C9.07866667,11.4794167 8.53233333,10.5856667 8.371,10.3106667 C8.10241667,9.84683333 8.66433333,9.78083333 9.17583333,8.81283333 C9.2675,8.62033333 9.22075,8.46908333 9.15291667,8.3325 C9.08416667,8.195 8.53691667,6.8475 8.30775,6.31033333 C8.08775,5.775 7.86133333,5.84283333 7.69175,5.84283333 C7.16375,5.797 6.77783333,5.80433333 6.43775,6.15816667 C4.95825,7.78433333 5.33133333,9.46183333 6.59725,11.2456667 C9.08508333,14.5016667 10.4105833,15.1011667 12.83425,15.9335 C13.48875,16.1415833 14.0855,16.11225 14.5575833,16.0444167 C15.08375,15.961 16.1773333,15.3835 16.4055833,14.73725 C16.6393333,14.091 16.6393333,13.55475 16.5705833,13.431 C16.50275,13.30725 16.3230833,13.2385 16.0480833,13.11475 L16.0480833,13.11475 Z" id="Path" fill="#FAFAFA"></path>
                </g>
            </g>
        </g>
    </g>
</svg>